{
  "ID": "63933c90-7166-43df-bad6-327514a3c97d",
  "Version": "3.10.0.0",
  "Name": "Layer",
  "Content": {
    "Content": {
      "Animation": {
        "Duration": 0,
        "Speed": 1.0,
        "Timelines": [],
        "ctype": "TimelineActionData"
      },
      "AnimationList": [],
      "ObjectData": {
        "Tag": 3,
        "Children": [
          {
            "FileData": {
              "Type": "Normal",
              "Path": "2_Slt_Ketqua_panel.png",
              "Plist": ""
            },
            "Scale9Enable": true,
            "Scale9OriginX": 128,
            "Scale9OriginY": 179,
            "Scale9Width": 127,
            "Scale9Height": 107,
            "AnchorPoint": {
              "ScaleX": 0.5,
              "ScaleY": 0.5
            },
            "Position": {
              "X": 482.976,
              "Y": 321.024
            },
            "Scale": {
              "ScaleX": 1.0,
              "ScaleY": 1.0
            },
            "CColor": {},
            "IconVisible": false,
            "PositionPercentXEnabled": true,
            "PositionPercentYEnabled": true,
            "PrePosition": {
              "X": 0.5031,
              "Y": 0.5016
            },
            "PreSize": {
              "X": 0.8333,
              "Y": 0.7813
            },
            "LeftMargin": 82.976,
            "RightMargin": 77.024,
            "TopMargin": 68.976,
            "BottomMargin": 71.024,
            "Tag": 5,
            "Children": [
              {
                "FileData": {
                  "Type": "Normal",
                  "Path": "BMFButton.json",
                  "Plist": ""
                },
                "StretchWidthEnable": false,
                "StretchHeightEnable": false,
                "InnerActionSpeed": 1.0,
                "AnchorPoint": {},
                "Position": {
                  "X": 400.0,
                  "Y": 125.0
                },
                "Scale": {
                  "ScaleX": 1.0,
                  "ScaleY": 1.0
                },
                "CColor": {},
                "IconVisible": true,
                "PositionPercentXEnabled": true,
                "PositionPercentYEnabled": true,
                "PrePosition": {
                  "X": 0.5,
                  "Y": 0.25
                },
                "PreSize": {
                  "X": 0.0,
                  "Y": 0.0
                },
                "LeftMargin": 400.0,
                "RightMargin": 400.0,
                "TopMargin": 375.0,
                "BottomMargin": 125.0,
                "Tag": 9,
                "ActionTag": 67638827,
                "Size": {
                  "X": 0.0,
                  "Y": 0.0
                },
                "Name": "okBtn",
                "ctype": "ProjectNodeObjectData"
              }
            ],
            "ActionTag": -247482776,
            "Size": {
              "X": 800.0,
              "Y": 500.0
            },
            "Name": "bg",
            "ctype": "ImageViewObjectData"
          },
          {
            "FileData": {
              "Type": "Normal",
              "Path": "HelloWorld.png",
              "Plist": ""
            },
            "BlendFunc": {
              "Src": 770,
              "Dst": 771
            },
            "AnchorPoint": {
              "ScaleX": 0.5,
              "ScaleY": 0.5
            },
            "Position": {
              "X": 480.0,
              "Y": 364.8
            },
            "Scale": {
              "ScaleX": 0.4695,
              "ScaleY": 0.4461
            },
            "CColor": {},
            "IconVisible": false,
            "PositionPercentXEnabled": true,
            "PositionPercentYEnabled": true,
            "PrePosition": {
              "X": 0.5,
              "Y": 0.57
            },
            "PreSize": {
              "X": 1.0,
              "Y": 1.0
            },
            "TopMargin": -44.8,
            "BottomMargin": 44.8,
            "Tag": 9,
            "ActionTag": 1631712723,
            "Size": {
              "X": 960.0,
              "Y": 640.0
            },
            "Name": "image",
            "ctype": "SpriteObjectData"
          }
        ],
        "Size": {
          "X": 960.0,
          "Y": 640.0
        },
        "Name": "Layer",
        "ctype": "LayerObjectData"
      },
      "UsedResources": [
        "2_Slt_Ketqua_panel.png",
        "BMFButton.json",
        "HelloWorld.png"
      ],
      "ctype": "GameFileData"
    }
  },
  "Type": "Layer"
}