info face=Roboto_bold size=40 bold=1 italic=0 charset= unicode= stretchH=100 smooth=1 aa=1 padding=2,2,2,2 spacing=0,0 outline=0
common lineHeight=53 base=42 scaleW=1301 scaleH=512 pages=1 packed=0
page id=0 file="Roboto_bold.png"
chars count=879
char id=2 x=2 y=2 width=0 height=0 xoffset=0 yoffset=42 xadvance=0 page=0 chnl=15
char id=33 x=2 y=4 width=6 height=29 xoffset=2 yoffset=14 xadvance=10 page=0 chnl=15
char id=34 x=2 y=35 width=10 height=10 xoffset=1 yoffset=12 xadvance=12 page=0 chnl=15
char id=35 x=10 y=2 width=19 height=29 xoffset=1 yoffset=14 xadvance=20 page=0 chnl=15
char id=36 x=2 y=47 width=17 height=37 xoffset=2 yoffset=9 xadvance=20 page=0 chnl=15
char id=37 x=2 y=86 width=23 height=30 xoffset=2 yoffset=14 xadvance=26 page=0 chnl=15
char id=38 x=21 y=33 width=22 height=30 xoffset=1 yoffset=14 xadvance=24 page=0 chnl=15
char id=39 x=14 y=33 width=4 height=11 xoffset=1 yoffset=12 xadvance=6 page=0 chnl=15
char id=40 x=2 y=118 width=10 height=40 xoffset=2 yoffset=11 xadvance=12 page=0 chnl=15
char id=41 x=2 y=160 width=10 height=40 xoffset=1 yoffset=11 xadvance=12 page=0 chnl=15
char id=42 x=21 y=65 width=15 height=17 xoffset=1 yoffset=14 xadvance=16 page=0 chnl=15
char id=43 x=31 y=2 width=18 height=21 xoffset=1 yoffset=19 xadvance=19 page=0 chnl=15
char id=44 x=2 y=202 width=6 height=11 xoffset=1 yoffset=38 xadvance=9 page=0 chnl=15
char id=45 x=31 y=25 width=10 height=5 xoffset=2 yoffset=28 xadvance=15 page=0 chnl=15
char id=46 x=43 y=25 width=6 height=5 xoffset=2 yoffset=37 xadvance=11 page=0 chnl=15
char id=47 x=2 y=215 width=13 height=31 xoffset=0 yoffset=14 xadvance=13 page=0 chnl=15
char id=48 x=14 y=118 width=17 height=30 xoffset=2 yoffset=14 xadvance=20 page=0 chnl=15
char id=49 x=27 y=84 width=11 height=29 xoffset=3 yoffset=14 xadvance=20 page=0 chnl=15
char id=50 x=14 y=150 width=18 height=29 xoffset=1 yoffset=14 xadvance=20 page=0 chnl=15
char id=51 x=14 y=181 width=18 height=30 xoffset=1 yoffset=14 xadvance=20 page=0 chnl=15
char id=52 x=33 y=115 width=18 height=29 xoffset=1 yoffset=14 xadvance=20 page=0 chnl=15
char id=53 x=40 y=65 width=17 height=29 xoffset=2 yoffset=14 xadvance=20 page=0 chnl=15
char id=54 x=45 y=32 width=18 height=30 xoffset=2 yoffset=14 xadvance=20 page=0 chnl=15
char id=55 x=2 y=248 width=18 height=29 xoffset=1 yoffset=14 xadvance=20 page=0 chnl=15
char id=56 x=17 y=213 width=17 height=30 xoffset=2 yoffset=14 xadvance=20 page=0 chnl=15
char id=57 x=34 y=146 width=17 height=30 xoffset=1 yoffset=14 xadvance=20 page=0 chnl=15
char id=58 x=51 y=2 width=6 height=21 xoffset=2 yoffset=21 xadvance=11 page=0 chnl=15
char id=59 x=59 y=2 width=6 height=27 xoffset=2 yoffset=21 xadvance=10 page=0 chnl=15
char id=60 x=34 y=178 width=15 height=19 xoffset=1 yoffset=22 xadvance=18 page=0 chnl=15
char id=61 x=40 y=96 width=15 height=13 xoffset=2 yoffset=23 xadvance=20 page=0 chnl=15
char id=62 x=2 y=279 width=15 height=19 xoffset=2 yoffset=22 xadvance=18 page=0 chnl=15
char id=63 x=2 y=300 width=17 height=29 xoffset=0 yoffset=14 xadvance=18 page=0 chnl=15
char id=64 x=2 y=331 width=29 height=37 xoffset=1 yoffset=15 xadvance=32 page=0 chnl=15
char id=65 x=21 y=279 width=22 height=29 xoffset=0 yoffset=14 xadvance=22 page=0 chnl=15
char id=66 x=22 y=245 width=19 height=29 xoffset=2 yoffset=14 xadvance=22 page=0 chnl=15
char id=67 x=36 y=199 width=19 height=30 xoffset=1 yoffset=14 xadvance=21 page=0 chnl=15
char id=68 x=43 y=231 width=19 height=29 xoffset=2 yoffset=14 xadvance=22 page=0 chnl=15
char id=69 x=53 y=111 width=17 height=29 xoffset=2 yoffset=14 xadvance=20 page=0 chnl=15
char id=70 x=59 y=64 width=17 height=29 xoffset=2 yoffset=14 xadvance=20 page=0 chnl=15
char id=71 x=65 y=31 width=20 height=30 xoffset=2 yoffset=14 xadvance=23 page=0 chnl=15
char id=72 x=53 y=142 width=20 height=29 xoffset=2 yoffset=14 xadvance=24 page=0 chnl=15
char id=73 x=72 y=95 width=6 height=29 xoffset=2 yoffset=14 xadvance=10 page=0 chnl=15
char id=74 x=78 y=63 width=17 height=29 xoffset=1 yoffset=14 xadvance=20 page=0 chnl=15
char id=75 x=57 y=173 width=21 height=29 xoffset=2 yoffset=14 xadvance=22 page=0 chnl=15
char id=76 x=75 y=126 width=16 height=29 xoffset=2 yoffset=14 xadvance=19 page=0 chnl=15
char id=77 x=80 y=94 width=25 height=29 xoffset=2 yoffset=14 xadvance=29 page=0 chnl=15
char id=78 x=87 y=2 width=20 height=29 xoffset=2 yoffset=14 xadvance=24 page=0 chnl=15
char id=79 x=97 y=33 width=20 height=30 xoffset=1 yoffset=14 xadvance=23 page=0 chnl=15
char id=80 x=109 y=2 width=19 height=29 xoffset=2 yoffset=14 xadvance=23 page=0 chnl=15
char id=81 x=2 y=370 width=22 height=34 xoffset=2 yoffset=14 xadvance=24 page=0 chnl=15
char id=82 x=2 y=406 width=20 height=29 xoffset=2 yoffset=14 xadvance=23 page=0 chnl=15
char id=83 x=2 y=437 width=19 height=30 xoffset=1 yoffset=14 xadvance=22 page=0 chnl=15
char id=84 x=2 y=469 width=19 height=29 xoffset=1 yoffset=14 xadvance=19 page=0 chnl=15
char id=85 x=23 y=437 width=20 height=29 xoffset=2 yoffset=14 xadvance=23 page=0 chnl=15
char id=86 x=24 y=406 width=22 height=29 xoffset=0 yoffset=14 xadvance=22 page=0 chnl=15
char id=87 x=26 y=370 width=30 height=29 xoffset=0 yoffset=14 xadvance=30 page=0 chnl=15
char id=88 x=23 y=468 width=21 height=29 xoffset=1 yoffset=14 xadvance=22 page=0 chnl=15
char id=89 x=45 y=437 width=22 height=29 xoffset=0 yoffset=14 xadvance=22 page=0 chnl=15
char id=90 x=48 y=401 width=18 height=29 xoffset=1 yoffset=14 xadvance=19 page=0 chnl=15
char id=91 x=46 y=468 width=8 height=40 xoffset=2 yoffset=9 xadvance=10 page=0 chnl=15
char id=92 x=56 y=468 width=16 height=31 xoffset=0 yoffset=14 xadvance=15 page=0 chnl=15
char id=93 x=33 y=310 width=8 height=40 xoffset=0 yoffset=9 xadvance=10 page=0 chnl=15
char id=94 x=43 y=262 width=14 height=15 xoffset=1 yoffset=14 xadvance=15 page=0 chnl=15
char id=95 x=67 y=2 width=15 height=5 xoffset=0 yoffset=42 xadvance=15 page=0 chnl=15
char id=96 x=21 y=310 width=9 height=6 xoffset=1 yoffset=14 xadvance=12 page=0 chnl=15
char id=97 x=57 y=204 width=17 height=22 xoffset=1 yoffset=21 xadvance=18 page=0 chnl=15
char id=98 x=43 y=310 width=17 height=31 xoffset=2 yoffset=12 xadvance=19 page=0 chnl=15
char id=99 x=43 y=343 width=16 height=22 xoffset=1 yoffset=21 xadvance=18 page=0 chnl=15
char id=100 x=58 y=367 width=17 height=31 xoffset=1 yoffset=12 xadvance=19 page=0 chnl=15
char id=101 x=61 y=343 width=16 height=22 xoffset=1 yoffset=21 xadvance=18 page=0 chnl=15
char id=102 x=68 y=400 width=13 height=31 xoffset=0 yoffset=12 xadvance=13 page=0 chnl=15
char id=103 x=77 y=367 width=17 height=30 xoffset=1 yoffset=21 xadvance=19 page=0 chnl=15
char id=104 x=69 y=433 width=16 height=31 xoffset=2 yoffset=12 xadvance=19 page=0 chnl=15
char id=105 x=83 y=399 width=6 height=31 xoffset=2 yoffset=12 xadvance=10 page=0 chnl=15
char id=106 x=74 y=466 width=9 height=39 xoffset=-1 yoffset=12 xadvance=10 page=0 chnl=15
char id=107 x=85 y=466 width=17 height=31 xoffset=2 yoffset=12 xadvance=19 page=0 chnl=15
char id=108 x=87 y=432 width=6 height=31 xoffset=2 yoffset=12 xadvance=10 page=0 chnl=15
char id=109 x=97 y=65 width=26 height=22 xoffset=2 yoffset=21 xadvance=29 page=0 chnl=15
char id=110 x=45 y=279 width=16 height=22 xoffset=2 yoffset=21 xadvance=19 page=0 chnl=15
char id=111 x=119 y=33 width=18 height=22 xoffset=1 yoffset=21 xadvance=19 page=0 chnl=15
char id=112 x=91 y=399 width=17 height=30 xoffset=2 yoffset=21 xadvance=19 page=0 chnl=15
char id=113 x=95 y=431 width=17 height=30 xoffset=1 yoffset=21 xadvance=19 page=0 chnl=15
char id=114 x=130 y=2 width=11 height=22 xoffset=2 yoffset=21 xadvance=13 page=0 chnl=15
char id=115 x=62 y=303 width=16 height=22 xoffset=1 yoffset=21 xadvance=17 page=0 chnl=15
char id=116 x=79 y=327 width=12 height=27 xoffset=0 yoffset=16 xadvance=13 page=0 chnl=15
char id=117 x=63 y=262 width=16 height=22 xoffset=2 yoffset=21 xadvance=19 page=0 chnl=15
char id=118 x=64 y=228 width=18 height=21 xoffset=0 yoffset=21 xadvance=18 page=0 chnl=15
char id=119 x=76 y=204 width=24 height=21 xoffset=0 yoffset=21 xadvance=25 page=0 chnl=15
char id=120 x=80 y=286 width=17 height=21 xoffset=0 yoffset=21 xadvance=18 page=0 chnl=15
char id=121 x=81 y=251 width=18 height=30 xoffset=0 yoffset=21 xadvance=18 page=0 chnl=15
char id=122 x=84 y=227 width=15 height=21 xoffset=1 yoffset=21 xadvance=17 page=0 chnl=15
char id=123 x=80 y=157 width=10 height=39 xoffset=1 yoffset=11 xadvance=11 page=0 chnl=15
char id=124 x=92 y=157 width=4 height=34 xoffset=3 yoffset=14 xadvance=9 page=0 chnl=15
char id=125 x=104 y=463 width=10 height=39 xoffset=1 yoffset=11 xadvance=11 page=0 chnl=15
char id=126 x=92 y=193 width=19 height=9 xoffset=2 yoffset=26 xadvance=22 page=0 chnl=15
char id=160 x=10 y=33 width=0 height=0 xoffset=0 yoffset=42 xadvance=9 page=0 chnl=15
char id=161 x=93 y=125 width=6 height=29 xoffset=2 yoffset=21 xadvance=10 page=0 chnl=15
char id=162 x=98 y=156 width=16 height=31 xoffset=2 yoffset=17 xadvance=20 page=0 chnl=15
char id=163 x=101 y=125 width=18 height=29 xoffset=2 yoffset=14 xadvance=21 page=0 chnl=15
char id=164 x=107 y=89 width=22 height=26 xoffset=1 yoffset=18 xadvance=25 page=0 chnl=15
char id=165 x=125 y=57 width=21 height=29 xoffset=0 yoffset=14 xadvance=21 page=0 chnl=15
char id=166 x=143 y=2 width=5 height=34 xoffset=2 yoffset=14 xadvance=9 page=0 chnl=15
char id=167 x=93 y=309 width=19 height=38 xoffset=2 yoffset=14 xadvance=22 page=0 chnl=15
char id=168 x=45 y=303 width=14 height=4 xoffset=3 yoffset=14 xadvance=20 page=0 chnl=15
char id=169 x=96 y=349 width=25 height=30 xoffset=2 yoffset=14 xadvance=28 page=0 chnl=15
char id=170 x=96 y=381 width=12 height=16 xoffset=2 yoffset=14 xadvance=15 page=0 chnl=15
char id=171 x=139 y=38 width=15 height=16 xoffset=1 yoffset=25 xadvance=18 page=0 chnl=15
char id=172 x=64 y=251 width=14 height=9 xoffset=2 yoffset=27 xadvance=19 page=0 chnl=15
char id=173 x=130 y=26 width=10 height=5 xoffset=2 yoffset=28 xadvance=15 page=0 chnl=15
char id=174 x=150 y=2 width=25 height=30 xoffset=2 yoffset=14 xadvance=28 page=0 chnl=15
char id=175 x=48 y=432 width=13 height=3 xoffset=3 yoffset=14 xadvance=19 page=0 chnl=15
char id=176 x=21 y=318 width=10 height=11 xoffset=2 yoffset=14 xadvance=14 page=0 chnl=15
char id=177 x=110 y=381 width=16 height=26 xoffset=2 yoffset=17 xadvance=19 page=0 chnl=15
char id=178 x=80 y=309 width=11 height=16 xoffset=2 yoffset=14 xadvance=15 page=0 chnl=15
char id=179 x=67 y=9 width=12 height=16 xoffset=2 yoffset=14 xadvance=14 page=0 chnl=15
char id=180 x=107 y=117 width=10 height=6 xoffset=2 yoffset=14 xadvance=13 page=0 chnl=15
char id=181 x=114 y=409 width=17 height=30 xoffset=2 yoffset=21 xadvance=22 page=0 chnl=15
char id=182 x=116 y=441 width=15 height=29 xoffset=1 yoffset=14 xadvance=19 page=0 chnl=15
char id=183 x=51 y=25 width=6 height=5 xoffset=3 yoffset=26 xadvance=11 page=0 chnl=15
char id=184 x=2 y=500 width=7 height=10 xoffset=2 yoffset=42 xadvance=10 page=0 chnl=15
char id=185 x=33 y=352 width=6 height=16 xoffset=2 yoffset=14 xadvance=10 page=0 chnl=15
char id=186 x=99 y=283 width=12 height=16 xoffset=2 yoffset=14 xadvance=16 page=0 chnl=15
char id=187 x=116 y=472 width=15 height=16 xoffset=1 yoffset=24 xadvance=18 page=0 chnl=15
char id=188 x=101 y=227 width=22 height=29 xoffset=2 yoffset=14 xadvance=25 page=0 chnl=15
char id=189 x=113 y=189 width=23 height=29 xoffset=2 yoffset=14 xadvance=26 page=0 chnl=15
char id=190 x=116 y=156 width=26 height=29 xoffset=1 yoffset=14 xadvance=28 page=0 chnl=15
char id=191 x=121 y=117 width=17 height=29 xoffset=1 yoffset=21 xadvance=18 page=0 chnl=15
char id=192 x=113 y=258 width=22 height=36 xoffset=0 yoffset=7 xadvance=22 page=0 chnl=15
char id=193 x=125 y=220 width=22 height=36 xoffset=0 yoffset=7 xadvance=22 page=0 chnl=15
char id=194 x=114 y=296 width=22 height=37 xoffset=0 yoffset=6 xadvance=22 page=0 chnl=15
char id=195 x=123 y=335 width=22 height=37 xoffset=0 yoffset=5 xadvance=22 page=0 chnl=15
char id=196 x=137 y=258 width=22 height=36 xoffset=0 yoffset=7 xadvance=22 page=0 chnl=15
char id=197 x=140 y=88 width=22 height=38 xoffset=0 yoffset=5 xadvance=22 page=0 chnl=15
char id=198 x=148 y=56 width=31 height=29 xoffset=0 yoffset=14 xadvance=32 page=0 chnl=15
char id=199 x=177 y=2 width=19 height=38 xoffset=1 yoffset=14 xadvance=21 page=0 chnl=15
char id=200 x=138 y=296 width=17 height=36 xoffset=2 yoffset=7 xadvance=20 page=0 chnl=15
char id=201 x=144 y=128 width=17 height=36 xoffset=2 yoffset=7 xadvance=20 page=0 chnl=15
char id=202 x=144 y=166 width=17 height=37 xoffset=2 yoffset=6 xadvance=20 page=0 chnl=15
char id=203 x=149 y=205 width=17 height=36 xoffset=2 yoffset=7 xadvance=20 page=0 chnl=15
char id=204 x=163 y=128 width=10 height=36 xoffset=-1 yoffset=7 xadvance=10 page=0 chnl=15
char id=205 x=163 y=166 width=10 height=36 xoffset=2 yoffset=7 xadvance=10 page=0 chnl=15
char id=206 x=164 y=87 width=13 height=37 xoffset=-1 yoffset=6 xadvance=10 page=0 chnl=15
char id=207 x=133 y=374 width=14 height=36 xoffset=-2 yoffset=7 xadvance=10 page=0 chnl=15
char id=208 x=147 y=334 width=21 height=29 xoffset=1 yoffset=14 xadvance=23 page=0 chnl=15
char id=209 x=161 y=243 width=20 height=37 xoffset=2 yoffset=5 xadvance=24 page=0 chnl=15
char id=210 x=168 y=204 width=20 height=37 xoffset=1 yoffset=6 xadvance=23 page=0 chnl=15
char id=211 x=161 y=282 width=20 height=37 xoffset=1 yoffset=6 xadvance=23 page=0 chnl=15
char id=212 x=175 y=126 width=20 height=37 xoffset=1 yoffset=6 xadvance=23 page=0 chnl=15
char id=213 x=181 y=42 width=20 height=38 xoffset=1 yoffset=5 xadvance=23 page=0 chnl=15
char id=214 x=179 y=87 width=20 height=36 xoffset=1 yoffset=7 xadvance=23 page=0 chnl=15
char id=215 x=156 y=34 width=17 height=19 xoffset=1 yoffset=20 xadvance=19 page=0 chnl=15
char id=216 x=175 y=165 width=20 height=32 xoffset=2 yoffset=13 xadvance=24 page=0 chnl=15
char id=217 x=198 y=2 width=20 height=36 xoffset=2 yoffset=7 xadvance=23 page=0 chnl=15
char id=218 x=133 y=412 width=20 height=36 xoffset=2 yoffset=7 xadvance=23 page=0 chnl=15
char id=219 x=149 y=365 width=20 height=37 xoffset=2 yoffset=6 xadvance=23 page=0 chnl=15
char id=220 x=170 y=321 width=20 height=36 xoffset=2 yoffset=7 xadvance=23 page=0 chnl=15
char id=221 x=133 y=450 width=22 height=36 xoffset=0 yoffset=7 xadvance=22 page=0 chnl=15
char id=222 x=155 y=404 width=18 height=29 xoffset=2 yoffset=14 xadvance=21 page=0 chnl=15
char id=223 x=171 y=359 width=19 height=31 xoffset=2 yoffset=12 xadvance=22 page=0 chnl=15
char id=224 x=157 y=435 width=17 height=30 xoffset=1 yoffset=13 xadvance=18 page=0 chnl=15
char id=225 x=175 y=392 width=17 height=30 xoffset=1 yoffset=13 xadvance=18 page=0 chnl=15
char id=226 x=157 y=467 width=17 height=31 xoffset=1 yoffset=13 xadvance=18 page=0 chnl=15
char id=227 x=183 y=243 width=17 height=32 xoffset=1 yoffset=12 xadvance=18 page=0 chnl=15
char id=228 x=190 y=199 width=17 height=30 xoffset=1 yoffset=13 xadvance=18 page=0 chnl=15
char id=229 x=183 y=277 width=17 height=32 xoffset=1 yoffset=11 xadvance=18 page=0 chnl=15
char id=230 x=197 y=125 width=27 height=22 xoffset=1 yoffset=21 xadvance=29 page=0 chnl=15
char id=231 x=201 y=82 width=16 height=31 xoffset=1 yoffset=21 xadvance=18 page=0 chnl=15
char id=232 x=203 y=40 width=16 height=30 xoffset=1 yoffset=13 xadvance=18 page=0 chnl=15
char id=233 x=220 y=2 width=16 height=30 xoffset=1 yoffset=13 xadvance=18 page=0 chnl=15
char id=234 x=197 y=149 width=16 height=31 xoffset=1 yoffset=12 xadvance=18 page=0 chnl=15
char id=235 x=219 y=72 width=16 height=30 xoffset=1 yoffset=13 xadvance=18 page=0 chnl=15
char id=236 x=221 y=34 width=10 height=29 xoffset=-1 yoffset=13 xadvance=10 page=0 chnl=15
char id=237 x=233 y=34 width=10 height=29 xoffset=2 yoffset=13 xadvance=10 page=0 chnl=15
char id=238 x=238 y=2 width=13 height=30 xoffset=-1 yoffset=13 xadvance=10 page=0 chnl=15
char id=239 x=192 y=311 width=14 height=29 xoffset=-2 yoffset=14 xadvance=10 page=0 chnl=15
char id=240 x=192 y=342 width=19 height=30 xoffset=1 yoffset=13 xadvance=21 page=0 chnl=15
char id=241 x=202 y=231 width=16 height=31 xoffset=2 yoffset=12 xadvance=19 page=0 chnl=15
char id=242 x=202 y=264 width=18 height=30 xoffset=1 yoffset=13 xadvance=19 page=0 chnl=15
char id=243 x=208 y=296 width=18 height=30 xoffset=1 yoffset=13 xadvance=19 page=0 chnl=15
char id=244 x=209 y=182 width=18 height=31 xoffset=1 yoffset=13 xadvance=19 page=0 chnl=15
char id=245 x=220 y=215 width=18 height=32 xoffset=1 yoffset=12 xadvance=19 page=0 chnl=15
char id=246 x=215 y=149 width=18 height=30 xoffset=1 yoffset=13 xadvance=19 page=0 chnl=15
char id=247 x=133 y=488 width=17 height=21 xoffset=1 yoffset=19 xadvance=20 page=0 chnl=15
char id=248 x=229 y=181 width=18 height=27 xoffset=1 yoffset=19 xadvance=19 page=0 chnl=15
char id=249 x=226 y=104 width=16 height=30 xoffset=2 yoffset=13 xadvance=19 page=0 chnl=15
char id=250 x=237 y=65 width=16 height=30 xoffset=2 yoffset=13 xadvance=19 page=0 chnl=15
char id=251 x=235 y=136 width=16 height=30 xoffset=2 yoffset=13 xadvance=19 page=0 chnl=15
char id=252 x=245 y=34 width=16 height=29 xoffset=2 yoffset=14 xadvance=19 page=0 chnl=15
char id=253 x=222 y=249 width=18 height=38 xoffset=0 yoffset=13 xadvance=18 page=0 chnl=15
char id=254 x=176 y=424 width=17 height=39 xoffset=2 yoffset=12 xadvance=20 page=0 chnl=15
char id=255 x=244 y=97 width=18 height=37 xoffset=0 yoffset=14 xadvance=18 page=0 chnl=15
char id=256 x=240 y=210 width=22 height=35 xoffset=0 yoffset=8 xadvance=22 page=0 chnl=15
char id=257 x=255 y=65 width=17 height=29 xoffset=1 yoffset=14 xadvance=18 page=0 chnl=15
char id=258 x=249 y=168 width=22 height=37 xoffset=0 yoffset=5 xadvance=22 page=0 chnl=15
char id=259 x=176 y=465 width=17 height=32 xoffset=1 yoffset=12 xadvance=18 page=0 chnl=15
char id=260 x=194 y=374 width=22 height=37 xoffset=0 yoffset=14 xadvance=22 page=0 chnl=15
char id=261 x=253 y=2 width=17 height=30 xoffset=1 yoffset=21 xadvance=18 page=0 chnl=15
char id=262 x=213 y=328 width=19 height=37 xoffset=1 yoffset=6 xadvance=21 page=0 chnl=15
char id=263 x=253 y=136 width=16 height=30 xoffset=1 yoffset=13 xadvance=18 page=0 chnl=15
char id=264 x=228 y=289 width=19 height=37 xoffset=1 yoffset=6 xadvance=21 page=0 chnl=15
char id=265 x=264 y=96 width=16 height=31 xoffset=1 yoffset=13 xadvance=18 page=0 chnl=15
char id=266 x=271 y=129 width=19 height=37 xoffset=1 yoffset=6 xadvance=21 page=0 chnl=15
char id=267 x=242 y=247 width=16 height=31 xoffset=1 yoffset=13 xadvance=18 page=0 chnl=15
char id=268 x=272 y=2 width=19 height=38 xoffset=1 yoffset=5 xadvance=21 page=0 chnl=15
char id=269 x=274 y=42 width=16 height=31 xoffset=1 yoffset=12 xadvance=18 page=0 chnl=15
char id=270 x=282 y=75 width=19 height=37 xoffset=2 yoffset=6 xadvance=22 page=0 chnl=15
char id=271 x=292 y=42 width=23 height=31 xoffset=1 yoffset=12 xadvance=22 page=0 chnl=15
char id=272 x=293 y=2 width=21 height=29 xoffset=1 yoffset=14 xadvance=23 page=0 chnl=15
char id=273 x=316 y=2 width=19 height=31 xoffset=1 yoffset=12 xadvance=20 page=0 chnl=15
char id=274 x=195 y=413 width=17 height=35 xoffset=2 yoffset=8 xadvance=20 page=0 chnl=15
char id=275 x=195 y=450 width=16 height=29 xoffset=1 yoffset=14 xadvance=18 page=0 chnl=15
char id=276 x=213 y=450 width=17 height=37 xoffset=2 yoffset=5 xadvance=20 page=0 chnl=15
char id=277 x=214 y=413 width=16 height=32 xoffset=1 yoffset=12 xadvance=18 page=0 chnl=15
char id=278 x=218 y=367 width=17 height=36 xoffset=2 yoffset=6 xadvance=20 page=0 chnl=15
char id=279 x=234 y=328 width=16 height=31 xoffset=1 yoffset=13 xadvance=18 page=0 chnl=15
char id=280 x=249 y=280 width=17 height=37 xoffset=2 yoffset=14 xadvance=20 page=0 chnl=15
char id=281 x=195 y=481 width=16 height=29 xoffset=1 yoffset=21 xadvance=18 page=0 chnl=15
char id=282 x=264 y=207 width=17 height=37 xoffset=2 yoffset=6 xadvance=20 page=0 chnl=15
char id=283 x=260 y=247 width=16 height=31 xoffset=1 yoffset=12 xadvance=18 page=0 chnl=15
char id=284 x=273 y=168 width=20 height=37 xoffset=2 yoffset=6 xadvance=23 page=0 chnl=15
char id=285 x=292 y=114 width=17 height=39 xoffset=1 yoffset=13 xadvance=19 page=0 chnl=15
char id=286 x=232 y=405 width=20 height=38 xoffset=2 yoffset=5 xadvance=23 page=0 chnl=15
char id=287 x=237 y=361 width=17 height=40 xoffset=1 yoffset=12 xadvance=19 page=0 chnl=15
char id=288 x=303 y=75 width=20 height=37 xoffset=2 yoffset=6 xadvance=23 page=0 chnl=15
char id=289 x=252 y=319 width=17 height=39 xoffset=1 yoffset=13 xadvance=19 page=0 chnl=15
char id=290 x=232 y=445 width=20 height=39 xoffset=2 yoffset=14 xadvance=23 page=0 chnl=15
char id=291 x=254 y=403 width=17 height=42 xoffset=1 yoffset=9 xadvance=19 page=0 chnl=15
char id=292 x=268 y=280 width=20 height=37 xoffset=2 yoffset=6 xadvance=24 page=0 chnl=15
char id=293 x=317 y=35 width=16 height=37 xoffset=2 yoffset=6 xadvance=19 page=0 chnl=15
char id=294 x=278 y=246 width=24 height=29 xoffset=0 yoffset=14 xadvance=24 page=0 chnl=15
char id=295 x=283 y=207 width=19 height=31 xoffset=0 yoffset=12 xadvance=20 page=0 chnl=15
char id=296 x=256 y=360 width=13 height=37 xoffset=-1 yoffset=5 xadvance=10 page=0 chnl=15
char id=297 x=295 y=155 width=13 height=31 xoffset=-1 yoffset=12 xadvance=10 page=0 chnl=15
char id=298 x=254 y=447 width=13 height=35 xoffset=-1 yoffset=8 xadvance=10 page=0 chnl=15
char id=299 x=269 y=447 width=13 height=28 xoffset=-1 yoffset=14 xadvance=10 page=0 chnl=15
char id=300 x=271 y=319 width=13 height=37 xoffset=-1 yoffset=5 xadvance=10 page=0 chnl=15
char id=301 x=269 y=477 width=13 height=31 xoffset=-1 yoffset=12 xadvance=10 page=0 chnl=15
char id=302 x=271 y=358 width=8 height=37 xoffset=1 yoffset=14 xadvance=10 page=0 chnl=15
char id=303 x=273 y=397 width=8 height=39 xoffset=0 yoffset=12 xadvance=10 page=0 chnl=15
char id=304 x=281 y=358 width=6 height=36 xoffset=2 yoffset=6 xadvance=10 page=0 chnl=15
char id=305 x=102 y=204 width=6 height=21 xoffset=2 yoffset=21 xadvance=10 page=0 chnl=15
char id=306 x=286 y=319 width=26 height=29 xoffset=2 yoffset=14 xadvance=30 page=0 chnl=15
char id=307 x=290 y=277 width=16 height=39 xoffset=2 yoffset=12 xadvance=19 page=0 chnl=15
char id=308 x=283 y=396 width=20 height=37 xoffset=1 yoffset=6 xadvance=20 page=0 chnl=15
char id=309 x=289 y=350 width=13 height=38 xoffset=-2 yoffset=13 xadvance=10 page=0 chnl=15
char id=310 x=304 y=350 width=21 height=38 xoffset=2 yoffset=14 xadvance=22 page=0 chnl=15
char id=311 x=284 y=435 width=17 height=40 xoffset=2 yoffset=12 xadvance=19 page=0 chnl=15
char id=312 x=213 y=489 width=18 height=21 xoffset=2 yoffset=21 xadvance=21 page=0 chnl=15
char id=313 x=303 y=435 width=16 height=36 xoffset=2 yoffset=7 xadvance=19 page=0 chnl=15
char id=314 x=303 y=473 width=10 height=37 xoffset=2 yoffset=5 xadvance=10 page=0 chnl=15
char id=315 x=305 y=390 width=16 height=38 xoffset=2 yoffset=14 xadvance=19 page=0 chnl=15
char id=316 x=321 y=430 width=6 height=40 xoffset=2 yoffset=12 xadvance=10 page=0 chnl=15
char id=317 x=284 y=477 width=16 height=29 xoffset=2 yoffset=14 xadvance=19 page=0 chnl=15
char id=318 x=315 y=473 width=12 height=31 xoffset=2 yoffset=12 xadvance=13 page=0 chnl=15
char id=319 x=323 y=390 width=16 height=29 xoffset=2 yoffset=14 xadvance=19 page=0 chnl=15
char id=320 x=304 y=188 width=13 height=31 xoffset=2 yoffset=12 xadvance=14 page=0 chnl=15
char id=321 x=310 y=155 width=18 height=29 xoffset=0 yoffset=14 xadvance=17 page=0 chnl=15
char id=322 x=311 y=114 width=10 height=31 xoffset=0 yoffset=12 xadvance=10 page=0 chnl=15
char id=323 x=323 y=114 width=20 height=36 xoffset=2 yoffset=7 xadvance=24 page=0 chnl=15
char id=324 x=325 y=74 width=16 height=30 xoffset=2 yoffset=13 xadvance=19 page=0 chnl=15
char id=325 x=304 y=221 width=20 height=38 xoffset=2 yoffset=14 xadvance=24 page=0 chnl=15
char id=326 x=319 y=186 width=16 height=31 xoffset=2 yoffset=21 xadvance=19 page=0 chnl=15
char id=327 x=335 y=35 width=20 height=37 xoffset=2 yoffset=6 xadvance=24 page=0 chnl=15
char id=328 x=337 y=2 width=16 height=31 xoffset=2 yoffset=12 xadvance=19 page=0 chnl=15
char id=329 x=355 y=2 width=18 height=31 xoffset=0 yoffset=12 xadvance=19 page=0 chnl=15
char id=330 x=343 y=74 width=20 height=37 xoffset=2 yoffset=14 xadvance=24 page=0 chnl=15
char id=331 x=330 y=152 width=16 height=30 xoffset=2 yoffset=21 xadvance=19 page=0 chnl=15
char id=332 x=357 y=35 width=20 height=36 xoffset=1 yoffset=7 xadvance=23 page=0 chnl=15
char id=333 x=375 y=2 width=18 height=29 xoffset=1 yoffset=14 xadvance=19 page=0 chnl=15
char id=334 x=308 y=261 width=20 height=38 xoffset=1 yoffset=5 xadvance=23 page=0 chnl=15
char id=335 x=345 y=113 width=18 height=32 xoffset=1 yoffset=12 xadvance=19 page=0 chnl=15
char id=336 x=326 y=219 width=20 height=38 xoffset=1 yoffset=6 xadvance=23 page=0 chnl=15
char id=337 x=337 y=184 width=19 height=31 xoffset=1 yoffset=12 xadvance=19 page=0 chnl=15
char id=338 x=348 y=147 width=31 height=30 xoffset=2 yoffset=14 xadvance=33 page=0 chnl=15
char id=339 x=233 y=486 width=28 height=22 xoffset=1 yoffset=21 xadvance=31 page=0 chnl=15
char id=340 x=314 y=301 width=20 height=36 xoffset=2 yoffset=7 xadvance=23 page=0 chnl=15
char id=341 x=330 y=259 width=12 height=30 xoffset=2 yoffset=13 xadvance=13 page=0 chnl=15
char id=342 x=327 y=339 width=20 height=38 xoffset=2 yoffset=14 xadvance=23 page=0 chnl=15
char id=343 x=336 y=291 width=11 height=31 xoffset=2 yoffset=21 xadvance=13 page=0 chnl=15
char id=344 x=365 y=73 width=20 height=37 xoffset=2 yoffset=6 xadvance=23 page=0 chnl=15
char id=345 x=365 y=112 width=14 height=31 xoffset=0 yoffset=12 xadvance=13 page=0 chnl=15
char id=346 x=379 y=33 width=19 height=37 xoffset=1 yoffset=6 xadvance=22 page=0 chnl=15
char id=347 x=344 y=259 width=16 height=30 xoffset=1 yoffset=13 xadvance=17 page=0 chnl=15
char id=348 x=348 y=217 width=19 height=37 xoffset=1 yoffset=6 xadvance=22 page=0 chnl=15
char id=349 x=358 y=179 width=16 height=31 xoffset=1 yoffset=13 xadvance=17 page=0 chnl=15
char id=350 x=329 y=421 width=19 height=38 xoffset=1 yoffset=14 xadvance=22 page=0 chnl=15
char id=351 x=341 y=379 width=16 height=31 xoffset=1 yoffset=21 xadvance=17 page=0 chnl=15
char id=352 x=329 y=461 width=19 height=38 xoffset=1 yoffset=5 xadvance=22 page=0 chnl=15
char id=353 x=349 y=291 width=16 height=31 xoffset=1 yoffset=12 xadvance=17 page=0 chnl=15
char id=354 x=349 y=324 width=19 height=38 xoffset=1 yoffset=14 xadvance=19 page=0 chnl=15
char id=355 x=367 y=256 width=12 height=36 xoffset=0 yoffset=16 xadvance=13 page=0 chnl=15
char id=356 x=369 y=212 width=19 height=37 xoffset=1 yoffset=6 xadvance=19 page=0 chnl=15
char id=357 x=381 y=112 width=15 height=32 xoffset=0 yoffset=11 xadvance=13 page=0 chnl=15
char id=358 x=395 y=2 width=19 height=29 xoffset=1 yoffset=14 xadvance=19 page=0 chnl=15
char id=359 x=367 y=294 width=12 height=27 xoffset=0 yoffset=16 xadvance=13 page=0 chnl=15
char id=360 x=387 y=72 width=20 height=38 xoffset=2 yoffset=5 xadvance=23 page=0 chnl=15
char id=361 x=376 y=179 width=16 height=31 xoffset=2 yoffset=12 xadvance=19 page=0 chnl=15
char id=362 x=400 y=33 width=20 height=35 xoffset=2 yoffset=8 xadvance=23 page=0 chnl=15
char id=363 x=416 y=2 width=16 height=29 xoffset=2 yoffset=14 xadvance=19 page=0 chnl=15
char id=364 x=350 y=412 width=20 height=38 xoffset=2 yoffset=5 xadvance=23 page=0 chnl=15
char id=365 x=381 y=146 width=16 height=31 xoffset=2 yoffset=12 xadvance=19 page=0 chnl=15
char id=366 x=359 y=364 width=20 height=38 xoffset=2 yoffset=5 xadvance=23 page=0 chnl=15
char id=367 x=398 y=112 width=16 height=32 xoffset=2 yoffset=11 xadvance=19 page=0 chnl=15
char id=368 x=370 y=323 width=20 height=37 xoffset=2 yoffset=6 xadvance=23 page=0 chnl=15
char id=369 x=409 y=70 width=18 height=31 xoffset=2 yoffset=13 xadvance=19 page=0 chnl=15
char id=370 x=350 y=452 width=20 height=37 xoffset=2 yoffset=14 xadvance=23 page=0 chnl=15
char id=371 x=422 y=33 width=17 height=30 xoffset=2 yoffset=21 xadvance=19 page=0 chnl=15
char id=372 x=381 y=251 width=30 height=37 xoffset=0 yoffset=6 xadvance=30 page=0 chnl=15
char id=373 x=381 y=290 width=24 height=30 xoffset=0 yoffset=13 xadvance=25 page=0 chnl=15
char id=374 x=390 y=212 width=22 height=37 xoffset=0 yoffset=6 xadvance=22 page=0 chnl=15
char id=375 x=399 y=146 width=18 height=38 xoffset=0 yoffset=13 xadvance=18 page=0 chnl=15
char id=376 x=416 y=103 width=22 height=36 xoffset=0 yoffset=7 xadvance=22 page=0 chnl=15
char id=377 x=429 y=65 width=18 height=36 xoffset=1 yoffset=7 xadvance=19 page=0 chnl=15
char id=378 x=434 y=2 width=15 height=29 xoffset=1 yoffset=13 xadvance=17 page=0 chnl=15
char id=379 x=372 y=404 width=18 height=36 xoffset=1 yoffset=6 xadvance=19 page=0 chnl=15
char id=380 x=441 y=33 width=15 height=30 xoffset=1 yoffset=13 xadvance=17 page=0 chnl=15
char id=381 x=381 y=362 width=18 height=37 xoffset=1 yoffset=6 xadvance=19 page=0 chnl=15
char id=382 x=392 y=322 width=15 height=30 xoffset=1 yoffset=13 xadvance=17 page=0 chnl=15
char id=383 x=372 y=442 width=10 height=31 xoffset=2 yoffset=12 xadvance=9 page=0 chnl=15
char id=402 x=384 y=442 width=14 height=40 xoffset=-1 yoffset=12 xadvance=13 page=0 chnl=15
char id=416 x=392 y=401 width=25 height=32 xoffset=2 yoffset=11 xadvance=24 page=0 chnl=15
char id=417 x=372 y=484 width=20 height=25 xoffset=1 yoffset=18 xadvance=20 page=0 chnl=15
char id=431 x=401 y=354 width=26 height=32 xoffset=2 yoffset=11 xadvance=25 page=0 chnl=15
char id=432 x=394 y=186 width=22 height=24 xoffset=2 yoffset=19 xadvance=21 page=0 chnl=15
char id=496 x=409 y=290 width=14 height=39 xoffset=-2 yoffset=13 xadvance=10 page=0 chnl=15
char id=506 x=400 y=435 width=22 height=42 xoffset=0 yoffset=0 xadvance=22 page=0 chnl=15
char id=507 x=413 y=251 width=17 height=36 xoffset=1 yoffset=7 xadvance=18 page=0 chnl=15
char id=508 x=414 y=212 width=31 height=36 xoffset=0 yoffset=7 xadvance=32 page=0 chnl=15
char id=509 x=400 y=479 width=27 height=30 xoffset=1 yoffset=13 xadvance=29 page=0 chnl=15
char id=510 x=419 y=388 width=20 height=39 xoffset=2 yoffset=6 xadvance=24 page=0 chnl=15
char id=511 x=424 y=429 width=18 height=32 xoffset=1 yoffset=13 xadvance=19 page=0 chnl=15
char id=536 x=429 y=463 width=19 height=39 xoffset=1 yoffset=14 xadvance=22 page=0 chnl=15
char id=537 x=425 y=289 width=16 height=31 xoffset=1 yoffset=21 xadvance=17 page=0 chnl=15
char id=538 x=429 y=322 width=19 height=38 xoffset=1 yoffset=14 xadvance=19 page=0 chnl=15
char id=539 x=432 y=250 width=12 height=36 xoffset=0 yoffset=16 xadvance=13 page=0 chnl=15
char id=567 x=443 y=288 width=9 height=30 xoffset=-1 yoffset=21 xadvance=10 page=0 chnl=15
char id=601 x=429 y=362 width=16 height=22 xoffset=1 yoffset=21 xadvance=18 page=0 chnl=15
char id=700 x=226 y=136 width=6 height=11 xoffset=1 yoffset=12 xadvance=7 page=0 chnl=15
char id=710 x=110 y=220 width=13 height=5 xoffset=2 yoffset=13 xadvance=18 page=0 chnl=15
char id=711 x=203 y=72 width=14 height=6 xoffset=2 yoffset=13 xadvance=17 page=0 chnl=15
char id=713 x=175 y=199 width=13 height=3 xoffset=3 yoffset=14 xadvance=19 page=0 chnl=15
char id=728 x=99 y=301 width=13 height=6 xoffset=2 yoffset=14 xadvance=16 page=0 chnl=15
char id=729 x=392 y=435 width=6 height=5 xoffset=3 yoffset=14 xadvance=11 page=0 chnl=15
char id=730 x=282 y=114 width=8 height=8 xoffset=2 yoffset=13 xadvance=12 page=0 chnl=15
char id=731 x=190 y=231 width=8 height=10 xoffset=2 yoffset=41 xadvance=11 page=0 chnl=15
char id=732 x=325 y=106 width=13 height=6 xoffset=2 yoffset=13 xadvance=17 page=0 chnl=15
char id=733 x=56 y=501 width=16 height=6 xoffset=3 yoffset=13 xadvance=15 page=0 chnl=15
char id=755 x=341 y=412 width=7 height=7 xoffset=3 yoffset=44 xadvance=11 page=0 chnl=15
char id=768 x=392 y=354 width=7 height=6 xoffset=-13 yoffset=13 xadvance=0 page=0 chnl=15
char id=769 x=183 y=311 width=7 height=6 xoffset=-13 yoffset=13 xadvance=0 page=0 chnl=15
char id=771 x=57 y=96 width=13 height=6 xoffset=-15 yoffset=13 xadvance=0 page=0 chnl=15
char id=777 x=114 y=335 width=7 height=8 xoffset=-12 yoffset=10 xadvance=0 page=0 chnl=15
char id=783 x=79 y=356 width=15 height=6 xoffset=-17 yoffset=13 xadvance=0 page=0 chnl=15
char id=803 x=123 y=374 width=7 height=5 xoffset=-13 yoffset=45 xadvance=0 page=0 chnl=15
char id=900 x=273 y=438 width=7 height=7 xoffset=4 yoffset=11 xadvance=13 page=0 chnl=15
char id=901 x=11 y=500 width=14 height=10 xoffset=3 yoffset=8 xadvance=19 page=0 chnl=15
char id=902 x=446 y=250 width=22 height=32 xoffset=0 yoffset=11 xadvance=22 page=0 chnl=15
char id=903 x=57 y=104 width=6 height=5 xoffset=3 yoffset=26 xadvance=11 page=0 chnl=15
char id=904 x=441 y=386 width=24 height=32 xoffset=-2 yoffset=11 xadvance=22 page=0 chnl=15
char id=905 x=444 y=420 width=26 height=32 xoffset=-2 yoffset=11 xadvance=26 page=0 chnl=15
char id=906 x=450 y=454 width=12 height=32 xoffset=-2 yoffset=11 xadvance=12 page=0 chnl=15
char id=908 x=464 y=454 width=22 height=32 xoffset=0 yoffset=11 xadvance=23 page=0 chnl=15
char id=910 x=450 y=320 width=27 height=32 xoffset=-3 yoffset=11 xadvance=24 page=0 chnl=15
char id=911 x=454 y=284 width=23 height=32 xoffset=-1 yoffset=11 xadvance=24 page=0 chnl=15
char id=912 x=467 y=354 width=14 height=34 xoffset=-2 yoffset=9 xadvance=12 page=0 chnl=15
char id=913 x=451 y=2 width=22 height=29 xoffset=0 yoffset=14 xadvance=22 page=0 chnl=15
char id=914 x=472 y=390 width=19 height=29 xoffset=2 yoffset=14 xadvance=22 page=0 chnl=15
char id=915 x=472 y=421 width=16 height=29 xoffset=2 yoffset=14 xadvance=19 page=0 chnl=15
char id=916 x=488 y=452 width=25 height=29 xoffset=0 yoffset=14 xadvance=25 page=0 chnl=15
char id=917 x=490 y=421 width=17 height=29 xoffset=2 yoffset=14 xadvance=20 page=0 chnl=15
char id=918 x=419 y=141 width=18 height=29 xoffset=1 yoffset=14 xadvance=19 page=0 chnl=15
char id=919 x=419 y=172 width=20 height=29 xoffset=2 yoffset=14 xadvance=24 page=0 chnl=15
char id=920 x=440 y=103 width=20 height=30 xoffset=1 yoffset=14 xadvance=24 page=0 chnl=15
char id=921 x=263 y=34 width=6 height=29 xoffset=2 yoffset=14 xadvance=10 page=0 chnl=15
char id=922 x=439 y=141 width=21 height=29 xoffset=2 yoffset=14 xadvance=22 page=0 chnl=15
char id=923 x=449 y=65 width=22 height=29 xoffset=0 yoffset=14 xadvance=22 page=0 chnl=15
char id=924 x=458 y=33 width=25 height=29 xoffset=2 yoffset=14 xadvance=29 page=0 chnl=15
char id=925 x=475 y=2 width=20 height=29 xoffset=2 yoffset=14 xadvance=24 page=0 chnl=15
char id=926 x=441 y=172 width=17 height=29 xoffset=2 yoffset=14 xadvance=20 page=0 chnl=15
char id=927 x=447 y=203 width=20 height=30 xoffset=1 yoffset=14 xadvance=23 page=0 chnl=15
char id=928 x=460 y=172 width=20 height=29 xoffset=2 yoffset=14 xadvance=24 page=0 chnl=15
char id=929 x=469 y=203 width=19 height=29 xoffset=2 yoffset=14 xadvance=23 page=0 chnl=15
char id=931 x=470 y=234 width=18 height=29 xoffset=1 yoffset=14 xadvance=20 page=0 chnl=15
char id=932 x=462 y=96 width=19 height=29 xoffset=1 yoffset=14 xadvance=19 page=0 chnl=15
char id=933 x=473 y=64 width=22 height=29 xoffset=0 yoffset=14 xadvance=22 page=0 chnl=15
char id=934 x=485 y=33 width=25 height=29 xoffset=1 yoffset=14 xadvance=27 page=0 chnl=15
char id=935 x=497 y=2 width=21 height=29 xoffset=1 yoffset=14 xadvance=22 page=0 chnl=15
char id=936 x=462 y=127 width=24 height=29 xoffset=1 yoffset=14 xadvance=25 page=0 chnl=15
char id=937 x=483 y=95 width=20 height=29 xoffset=2 yoffset=14 xadvance=23 page=0 chnl=15
char id=938 x=482 y=158 width=14 height=36 xoffset=-2 yoffset=7 xadvance=10 page=0 chnl=15
char id=939 x=479 y=265 width=22 height=36 xoffset=0 yoffset=7 xadvance=22 page=0 chnl=15
char id=940 x=479 y=303 width=18 height=31 xoffset=1 yoffset=12 xadvance=19 page=0 chnl=15
char id=941 x=483 y=336 width=17 height=31 xoffset=2 yoffset=12 xadvance=19 page=0 chnl=15
char id=942 x=493 y=369 width=16 height=39 xoffset=2 yoffset=12 xadvance=19 page=0 chnl=15
char id=943 x=499 y=303 width=9 height=31 xoffset=2 yoffset=12 xadvance=12 page=0 chnl=15
char id=944 x=509 y=410 width=17 height=34 xoffset=2 yoffset=9 xadvance=19 page=0 chnl=15
char id=945 x=447 y=362 width=18 height=22 xoffset=1 yoffset=21 xadvance=19 page=0 chnl=15
char id=946 x=515 y=446 width=18 height=37 xoffset=2 yoffset=14 xadvance=21 page=0 chnl=15
char id=947 x=488 y=126 width=18 height=30 xoffset=0 yoffset=21 xadvance=18 page=0 chnl=15
char id=948 x=497 y=64 width=18 height=29 xoffset=1 yoffset=14 xadvance=19 page=0 chnl=15
char id=949 x=450 y=488 width=17 height=22 xoffset=2 yoffset=21 xadvance=19 page=0 chnl=15
char id=950 x=490 y=196 width=16 height=37 xoffset=1 yoffset=14 xadvance=17 page=0 chnl=15
char id=951 x=502 y=336 width=16 height=30 xoffset=2 yoffset=21 xadvance=19 page=0 chnl=15
char id=952 x=498 y=158 width=17 height=30 xoffset=2 yoffset=14 xadvance=20 page=0 chnl=15
char id=953 x=469 y=488 width=9 height=22 xoffset=2 yoffset=21 xadvance=12 page=0 chnl=15
char id=954 x=409 y=331 width=18 height=21 xoffset=2 yoffset=21 xadvance=21 page=0 chnl=15
char id=955 x=511 y=368 width=19 height=30 xoffset=0 yoffset=13 xadvance=18 page=0 chnl=15
char id=956 x=528 y=400 width=17 height=30 xoffset=2 yoffset=21 xadvance=22 page=0 chnl=15
char id=957 x=480 y=488 width=18 height=21 xoffset=0 yoffset=21 xadvance=18 page=0 chnl=15
char id=958 x=508 y=95 width=17 height=37 xoffset=2 yoffset=14 xadvance=19 page=0 chnl=15
char id=959 x=508 y=134 width=18 height=22 xoffset=1 yoffset=21 xadvance=19 page=0 chnl=15
char id=960 x=500 y=485 width=21 height=22 xoffset=1 yoffset=21 xadvance=23 page=0 chnl=15
char id=961 x=517 y=33 width=17 height=30 xoffset=2 yoffset=21 xadvance=19 page=0 chnl=15
char id=962 x=503 y=235 width=16 height=30 xoffset=1 yoffset=21 xadvance=17 page=0 chnl=15
char id=963 x=523 y=485 width=18 height=22 xoffset=1 yoffset=21 xadvance=20 page=0 chnl=15
char id=964 x=517 y=65 width=17 height=21 xoffset=1 yoffset=21 xadvance=18 page=0 chnl=15
char id=965 x=520 y=2 width=17 height=22 xoffset=2 yoffset=21 xadvance=19 page=0 chnl=15
char id=966 x=503 y=267 width=25 height=31 xoffset=1 yoffset=21 xadvance=26 page=0 chnl=15
char id=967 x=510 y=300 width=18 height=30 xoffset=0 yoffset=21 xadvance=18 page=0 chnl=15
char id=968 x=520 y=332 width=24 height=31 xoffset=1 yoffset=21 xadvance=26 page=0 chnl=15
char id=969 x=532 y=365 width=27 height=22 xoffset=1 yoffset=21 xadvance=29 page=0 chnl=15
char id=970 x=508 y=190 width=14 height=29 xoffset=-2 yoffset=14 xadvance=12 page=0 chnl=15
char id=971 x=517 y=158 width=17 height=29 xoffset=2 yoffset=14 xadvance=19 page=0 chnl=15
char id=972 x=527 y=88 width=18 height=31 xoffset=1 yoffset=12 xadvance=19 page=0 chnl=15
char id=973 x=528 y=121 width=17 height=31 xoffset=2 yoffset=12 xadvance=19 page=0 chnl=15
char id=974 x=521 y=221 width=27 height=31 xoffset=1 yoffset=12 xadvance=29 page=0 chnl=15
char id=977 x=524 y=189 width=21 height=30 xoffset=2 yoffset=14 xadvance=24 page=0 chnl=15
char id=978 x=536 y=154 width=21 height=29 xoffset=0 yoffset=13 xadvance=21 page=0 chnl=15
char id=982 x=547 y=185 width=29 height=22 xoffset=0 yoffset=21 xadvance=29 page=0 chnl=15
char id=1024 x=535 y=432 width=17 height=36 xoffset=2 yoffset=7 xadvance=20 page=0 chnl=15
char id=1025 x=543 y=470 width=17 height=36 xoffset=2 yoffset=7 xadvance=20 page=0 chnl=15
char id=1026 x=547 y=389 width=24 height=29 xoffset=1 yoffset=14 xadvance=26 page=0 chnl=15
char id=1027 x=554 y=420 width=16 height=36 xoffset=2 yoffset=7 xadvance=19 page=0 chnl=15
char id=1028 x=562 y=458 width=19 height=30 xoffset=1 yoffset=14 xadvance=21 page=0 chnl=15
char id=1029 x=572 y=420 width=19 height=30 xoffset=1 yoffset=14 xadvance=22 page=0 chnl=15
char id=1030 x=583 y=452 width=6 height=29 xoffset=2 yoffset=14 xadvance=10 page=0 chnl=15
char id=1031 x=591 y=452 width=14 height=36 xoffset=-2 yoffset=7 xadvance=10 page=0 chnl=15
char id=1032 x=536 y=26 width=17 height=29 xoffset=1 yoffset=14 xadvance=20 page=0 chnl=15
char id=1033 x=536 y=57 width=35 height=29 xoffset=1 yoffset=14 xadvance=36 page=0 chnl=15
char id=1034 x=555 y=2 width=33 height=29 xoffset=2 yoffset=14 xadvance=36 page=0 chnl=15
char id=1035 x=547 y=88 width=24 height=29 xoffset=1 yoffset=14 xadvance=26 page=0 chnl=15
char id=1036 x=559 y=119 width=21 height=36 xoffset=2 yoffset=7 xadvance=22 page=0 chnl=15
char id=1037 x=530 y=254 width=20 height=36 xoffset=2 yoffset=7 xadvance=24 page=0 chnl=15
char id=1038 x=530 y=292 width=21 height=38 xoffset=1 yoffset=5 xadvance=22 page=0 chnl=15
char id=1039 x=550 y=209 width=20 height=36 xoffset=2 yoffset=14 xadvance=24 page=0 chnl=15
char id=1040 x=546 y=332 width=22 height=29 xoffset=0 yoffset=14 xadvance=22 page=0 chnl=15
char id=1041 x=552 y=247 width=19 height=29 xoffset=2 yoffset=14 xadvance=22 page=0 chnl=15
char id=1042 x=572 y=209 width=19 height=29 xoffset=2 yoffset=14 xadvance=22 page=0 chnl=15
char id=1043 x=578 y=157 width=16 height=29 xoffset=2 yoffset=14 xadvance=19 page=0 chnl=15
char id=1044 x=553 y=278 width=25 height=36 xoffset=0 yoffset=14 xadvance=26 page=0 chnl=15
char id=1045 x=573 y=240 width=17 height=29 xoffset=2 yoffset=14 xadvance=20 page=0 chnl=15
char id=1046 x=570 y=316 width=35 height=29 xoffset=0 yoffset=14 xadvance=35 page=0 chnl=15
char id=1047 x=570 y=347 width=19 height=30 xoffset=1 yoffset=14 xadvance=21 page=0 chnl=15
char id=1048 x=573 y=379 width=20 height=29 xoffset=2 yoffset=14 xadvance=24 page=0 chnl=15
char id=1049 x=593 y=410 width=20 height=37 xoffset=2 yoffset=5 xadvance=24 page=0 chnl=15
char id=1050 x=591 y=347 width=21 height=29 xoffset=2 yoffset=14 xadvance=22 page=0 chnl=15
char id=1051 x=595 y=378 width=22 height=29 xoffset=1 yoffset=14 xadvance=24 page=0 chnl=15
char id=1052 x=580 y=271 width=25 height=29 xoffset=2 yoffset=14 xadvance=29 page=0 chnl=15
char id=1053 x=592 y=240 width=20 height=29 xoffset=2 yoffset=14 xadvance=24 page=0 chnl=15
char id=1054 x=593 y=188 width=20 height=30 xoffset=1 yoffset=14 xadvance=23 page=0 chnl=15
char id=1055 x=607 y=449 width=20 height=29 xoffset=2 yoffset=14 xadvance=24 page=0 chnl=15
char id=1056 x=607 y=480 width=19 height=29 xoffset=2 yoffset=14 xadvance=23 page=0 chnl=15
char id=1057 x=628 y=480 width=19 height=30 xoffset=1 yoffset=14 xadvance=21 page=0 chnl=15
char id=1058 x=615 y=409 width=19 height=29 xoffset=1 yoffset=14 xadvance=19 page=0 chnl=15
char id=1059 x=629 y=440 width=21 height=29 xoffset=1 yoffset=14 xadvance=22 page=0 chnl=15
char id=1060 x=649 y=471 width=26 height=31 xoffset=1 yoffset=13 xadvance=29 page=0 chnl=15
char id=1061 x=607 y=271 width=21 height=29 xoffset=1 yoffset=14 xadvance=22 page=0 chnl=15
char id=1062 x=607 y=302 width=24 height=36 xoffset=2 yoffset=14 xadvance=26 page=0 chnl=15
char id=1063 x=614 y=340 width=20 height=29 xoffset=2 yoffset=14 xadvance=24 page=0 chnl=15
char id=1064 x=619 y=371 width=29 height=29 xoffset=2 yoffset=14 xadvance=33 page=0 chnl=15
char id=1065 x=636 y=402 width=33 height=36 xoffset=2 yoffset=14 xadvance=36 page=0 chnl=15
char id=1066 x=652 y=440 width=25 height=29 xoffset=1 yoffset=14 xadvance=26 page=0 chnl=15
char id=1067 x=677 y=471 width=26 height=29 xoffset=2 yoffset=14 xadvance=30 page=0 chnl=15
char id=1068 x=614 y=220 width=19 height=29 xoffset=2 yoffset=14 xadvance=22 page=0 chnl=15
char id=1069 x=630 y=251 width=19 height=30 xoffset=1 yoffset=14 xadvance=21 page=0 chnl=15
char id=1070 x=633 y=283 width=28 height=30 xoffset=2 yoffset=14 xadvance=33 page=0 chnl=15
char id=1071 x=636 y=315 width=20 height=29 xoffset=-1 yoffset=14 xadvance=20 page=0 chnl=15
char id=1072 x=559 y=157 width=17 height=22 xoffset=1 yoffset=21 xadvance=18 page=0 chnl=15
char id=1073 x=650 y=346 width=17 height=31 xoffset=1 yoffset=12 xadvance=20 page=0 chnl=15
char id=1074 x=650 y=379 width=17 height=21 xoffset=2 yoffset=21 xadvance=19 page=0 chnl=15
char id=1075 x=539 y=2 width=13 height=21 xoffset=2 yoffset=21 xadvance=14 page=0 chnl=15
char id=1076 x=658 y=315 width=21 height=28 xoffset=1 yoffset=21 xadvance=22 page=0 chnl=15
char id=1077 x=555 y=33 width=16 height=22 xoffset=1 yoffset=21 xadvance=18 page=0 chnl=15
char id=1078 x=669 y=345 width=29 height=21 xoffset=1 yoffset=21 xadvance=30 page=0 chnl=15
char id=1079 x=669 y=368 width=16 height=22 xoffset=1 yoffset=21 xadvance=18 page=0 chnl=15
char id=1080 x=671 y=392 width=16 height=21 xoffset=2 yoffset=21 xadvance=19 page=0 chnl=15
char id=1081 x=679 y=415 width=16 height=31 xoffset=2 yoffset=12 xadvance=19 page=0 chnl=15
char id=1082 x=679 y=448 width=18 height=21 xoffset=2 yoffset=21 xadvance=20 page=0 chnl=15
char id=1083 x=687 y=368 width=18 height=21 xoffset=0 yoffset=21 xadvance=20 page=0 chnl=15
char id=1084 x=689 y=391 width=22 height=21 xoffset=2 yoffset=21 xadvance=26 page=0 chnl=15
char id=1085 x=697 y=414 width=16 height=21 xoffset=2 yoffset=21 xadvance=19 page=0 chnl=15
char id=1086 x=699 y=437 width=18 height=22 xoffset=1 yoffset=21 xadvance=19 page=0 chnl=15
char id=1087 x=705 y=461 width=16 height=21 xoffset=2 yoffset=21 xadvance=19 page=0 chnl=15
char id=1088 x=573 y=33 width=17 height=30 xoffset=2 yoffset=21 xadvance=19 page=0 chnl=15
char id=1089 x=705 y=484 width=16 height=22 xoffset=1 yoffset=21 xadvance=18 page=0 chnl=15
char id=1090 x=590 y=2 width=17 height=21 xoffset=1 yoffset=21 xadvance=18 page=0 chnl=15
char id=1091 x=573 y=65 width=18 height=30 xoffset=0 yoffset=21 xadvance=18 page=0 chnl=15
char id=1092 x=582 y=97 width=23 height=39 xoffset=1 yoffset=12 xadvance=25 page=0 chnl=15
char id=1093 x=592 y=25 width=17 height=21 xoffset=0 yoffset=21 xadvance=18 page=0 chnl=15
char id=1094 x=593 y=48 width=19 height=28 xoffset=2 yoffset=21 xadvance=21 page=0 chnl=15
char id=1095 x=609 y=2 width=16 height=21 xoffset=2 yoffset=21 xadvance=19 page=0 chnl=15
char id=1096 x=611 y=25 width=25 height=21 xoffset=2 yoffset=21 xadvance=29 page=0 chnl=15
char id=1097 x=596 y=138 width=29 height=28 xoffset=2 yoffset=21 xadvance=32 page=0 chnl=15
char id=1098 x=627 y=2 width=22 height=21 xoffset=1 yoffset=21 xadvance=23 page=0 chnl=15
char id=1099 x=615 y=168 width=25 height=21 xoffset=2 yoffset=21 xadvance=29 page=0 chnl=15
char id=1100 x=615 y=191 width=17 height=21 xoffset=2 yoffset=21 xadvance=19 page=0 chnl=15
char id=1101 x=634 y=191 width=16 height=22 xoffset=1 yoffset=21 xadvance=18 page=0 chnl=15
char id=1102 x=635 y=215 width=25 height=22 xoffset=2 yoffset=21 xadvance=28 page=0 chnl=15
char id=1103 x=651 y=239 width=17 height=21 xoffset=1 yoffset=21 xadvance=19 page=0 chnl=15
char id=1104 x=663 y=262 width=16 height=30 xoffset=1 yoffset=13 xadvance=18 page=0 chnl=15
char id=1105 x=607 y=78 width=16 height=30 xoffset=1 yoffset=13 xadvance=18 page=0 chnl=15
char id=1106 x=625 y=48 width=19 height=39 xoffset=-1 yoffset=12 xadvance=19 page=0 chnl=15
char id=1107 x=625 y=89 width=13 height=29 xoffset=2 yoffset=13 xadvance=14 page=0 chnl=15
char id=1108 x=607 y=110 width=16 height=22 xoffset=1 yoffset=21 xadvance=18 page=0 chnl=15
char id=1109 x=627 y=120 width=16 height=22 xoffset=1 yoffset=21 xadvance=17 page=0 chnl=15
char id=1110 x=547 y=119 width=6 height=31 xoffset=2 yoffset=12 xadvance=10 page=0 chnl=15
char id=1111 x=640 y=89 width=14 height=29 xoffset=-2 yoffset=14 xadvance=10 page=0 chnl=15
char id=1112 x=642 y=144 width=9 height=39 xoffset=-1 yoffset=12 xadvance=10 page=0 chnl=15
char id=1113 x=638 y=25 width=29 height=21 xoffset=0 yoffset=21 xadvance=29 page=0 chnl=15
char id=1114 x=651 y=2 width=27 height=21 xoffset=2 yoffset=21 xadvance=29 page=0 chnl=15
char id=1115 x=646 y=48 width=18 height=31 xoffset=0 yoffset=12 xadvance=19 page=0 chnl=15
char id=1116 x=653 y=120 width=18 height=29 xoffset=2 yoffset=13 xadvance=20 page=0 chnl=15
char id=1117 x=656 y=81 width=16 height=29 xoffset=2 yoffset=13 xadvance=19 page=0 chnl=15
char id=1118 x=669 y=25 width=18 height=39 xoffset=0 yoffset=12 xadvance=18 page=0 chnl=15
char id=1119 x=652 y=185 width=16 height=28 xoffset=2 yoffset=21 xadvance=19 page=0 chnl=15
char id=1120 x=653 y=151 width=29 height=29 xoffset=2 yoffset=14 xadvance=33 page=0 chnl=15
char id=1121 x=662 y=215 width=26 height=22 xoffset=2 yoffset=21 xadvance=28 page=0 chnl=15
char id=1122 x=670 y=182 width=21 height=29 xoffset=0 yoffset=14 xadvance=22 page=0 chnl=15
char id=1123 x=673 y=112 width=19 height=31 xoffset=0 yoffset=12 xadvance=19 page=0 chnl=15
char id=1124 x=684 y=145 width=27 height=30 xoffset=2 yoffset=14 xadvance=31 page=0 chnl=15
char id=1125 x=674 y=66 width=23 height=22 xoffset=2 yoffset=21 xadvance=26 page=0 chnl=15
char id=1126 x=694 y=90 width=23 height=29 xoffset=0 yoffset=14 xadvance=23 page=0 chnl=15
char id=1127 x=680 y=2 width=19 height=21 xoffset=0 yoffset=21 xadvance=20 page=0 chnl=15
char id=1128 x=689 y=25 width=30 height=29 xoffset=2 yoffset=14 xadvance=33 page=0 chnl=15
char id=1129 x=701 y=2 width=26 height=21 xoffset=2 yoffset=21 xadvance=28 page=0 chnl=15
char id=1130 x=699 y=56 width=27 height=29 xoffset=2 yoffset=14 xadvance=30 page=0 chnl=15
char id=1131 x=670 y=239 width=22 height=21 xoffset=2 yoffset=21 xadvance=25 page=0 chnl=15
char id=1132 x=721 y=25 width=36 height=29 xoffset=2 yoffset=14 xadvance=40 page=0 chnl=15
char id=1133 x=729 y=2 width=31 height=21 xoffset=2 yoffset=21 xadvance=35 page=0 chnl=15
char id=1134 x=693 y=177 width=16 height=46 xoffset=0 yoffset=5 xadvance=18 page=0 chnl=15
char id=1135 x=681 y=262 width=16 height=39 xoffset=0 yoffset=13 xadvance=18 page=0 chnl=15
char id=1136 x=694 y=225 width=24 height=29 xoffset=1 yoffset=14 xadvance=25 page=0 chnl=15
char id=1137 x=681 y=303 width=24 height=31 xoffset=1 yoffset=21 xadvance=26 page=0 chnl=15
char id=1138 x=700 y=336 width=20 height=30 xoffset=2 yoffset=14 xadvance=24 page=0 chnl=15
char id=1139 x=694 y=121 width=18 height=22 xoffset=1 yoffset=21 xadvance=19 page=0 chnl=15
char id=1140 x=713 y=368 width=22 height=29 xoffset=0 yoffset=14 xadvance=22 page=0 chnl=15
char id=1141 x=715 y=399 width=18 height=22 xoffset=0 yoffset=21 xadvance=18 page=0 chnl=15
char id=1142 x=699 y=256 width=22 height=37 xoffset=0 yoffset=6 xadvance=22 page=0 chnl=15
char id=1143 x=719 y=423 width=19 height=30 xoffset=-1 yoffset=13 xadvance=18 page=0 chnl=15
char id=1144 x=707 y=295 width=39 height=38 xoffset=1 yoffset=14 xadvance=41 page=0 chnl=15
char id=1145 x=722 y=335 width=36 height=30 xoffset=1 yoffset=21 xadvance=37 page=0 chnl=15
char id=1146 x=711 y=177 width=20 height=34 xoffset=2 yoffset=12 xadvance=24 page=0 chnl=15
char id=1147 x=713 y=145 width=18 height=26 xoffset=1 yoffset=19 xadvance=19 page=0 chnl=15
char id=1148 x=720 y=213 width=29 height=36 xoffset=2 yoffset=7 xadvance=33 page=0 chnl=15
char id=1149 x=723 y=251 width=25 height=30 xoffset=2 yoffset=13 xadvance=28 page=0 chnl=15
char id=1150 x=748 y=283 width=29 height=36 xoffset=2 yoffset=7 xadvance=33 page=0 chnl=15
char id=1151 x=750 y=251 width=26 height=29 xoffset=2 yoffset=14 xadvance=28 page=0 chnl=15
char id=1152 x=737 y=367 width=19 height=36 xoffset=2 yoffset=14 xadvance=21 page=0 chnl=15
char id=1153 x=723 y=455 width=16 height=29 xoffset=1 yoffset=21 xadvance=18 page=0 chnl=15
char id=1154 x=740 y=405 width=18 height=27 xoffset=2 yoffset=16 xadvance=21 page=0 chnl=15
char id=1155 x=532 y=389 width=13 height=7 xoffset=-15 yoffset=12 xadvance=0 page=0 chnl=15
char id=1156 x=221 y=65 width=13 height=5 xoffset=-15 yoffset=12 xadvance=0 page=0 chnl=15
char id=1157 x=242 y=280 width=5 height=7 xoffset=-10 yoffset=10 xadvance=0 page=0 chnl=15
char id=1158 x=409 y=103 width=5 height=7 xoffset=-10 yoffset=10 xadvance=0 page=0 chnl=15
char id=1160 x=758 y=367 width=32 height=35 xoffset=-26 yoffset=14 xadvance=0 page=0 chnl=15
char id=1161 x=760 y=321 width=31 height=37 xoffset=-25 yoffset=14 xadvance=0 page=0 chnl=15
char id=1162 x=719 y=87 width=25 height=44 xoffset=2 yoffset=5 xadvance=24 page=0 chnl=15
char id=1163 x=741 y=434 width=21 height=37 xoffset=2 yoffset=12 xadvance=19 page=0 chnl=15
char id=1164 x=728 y=56 width=21 height=29 xoffset=0 yoffset=14 xadvance=22 page=0 chnl=15
char id=1165 x=741 y=473 width=19 height=32 xoffset=0 yoffset=11 xadvance=19 page=0 chnl=15
char id=1166 x=762 y=473 width=19 height=29 xoffset=2 yoffset=14 xadvance=22 page=0 chnl=15
char id=1167 x=764 y=404 width=17 height=30 xoffset=2 yoffset=21 xadvance=19 page=0 chnl=15
char id=1168 x=733 y=133 width=17 height=36 xoffset=2 yoffset=7 xadvance=19 page=0 chnl=15
char id=1169 x=764 y=436 width=14 height=28 xoffset=2 yoffset=15 xadvance=16 page=0 chnl=15
char id=1170 x=780 y=436 width=19 height=29 xoffset=0 yoffset=14 xadvance=19 page=0 chnl=15
char id=1171 x=723 y=486 width=15 height=21 xoffset=-1 yoffset=21 xadvance=14 page=0 chnl=15
char id=1172 x=733 y=171 width=19 height=35 xoffset=2 yoffset=14 xadvance=19 page=0 chnl=15
char id=1173 x=783 y=404 width=16 height=27 xoffset=2 yoffset=21 xadvance=19 page=0 chnl=15
char id=1174 x=751 y=208 width=37 height=36 xoffset=0 yoffset=14 xadvance=35 page=0 chnl=15
char id=1175 x=778 y=246 width=31 height=28 xoffset=1 yoffset=21 xadvance=30 page=0 chnl=15
char id=1176 x=792 y=360 width=19 height=39 xoffset=1 yoffset=14 xadvance=21 page=0 chnl=15
char id=1177 x=783 y=467 width=16 height=31 xoffset=1 yoffset=21 xadvance=18 page=0 chnl=15
char id=1178 x=779 y=276 width=21 height=36 xoffset=2 yoffset=14 xadvance=22 page=0 chnl=15
char id=1179 x=793 y=314 width=20 height=28 xoffset=2 yoffset=21 xadvance=20 page=0 chnl=15
char id=1180 x=802 y=276 width=22 height=29 xoffset=2 yoffset=14 xadvance=23 page=0 chnl=15
char id=1181 x=746 y=87 width=19 height=21 xoffset=2 yoffset=21 xadvance=21 page=0 chnl=15
char id=1182 x=751 y=56 width=24 height=29 xoffset=-1 yoffset=14 xadvance=23 page=0 chnl=15
char id=1183 x=762 y=2 width=21 height=31 xoffset=-1 yoffset=12 xadvance=19 page=0 chnl=15
char id=1184 x=752 y=110 width=28 height=29 xoffset=1 yoffset=14 xadvance=28 page=0 chnl=15
char id=1185 x=767 y=87 width=24 height=21 xoffset=1 yoffset=21 xadvance=25 page=0 chnl=15
char id=1186 x=777 y=35 width=24 height=36 xoffset=2 yoffset=14 xadvance=24 page=0 chnl=15
char id=1187 x=752 y=141 width=20 height=28 xoffset=2 yoffset=21 xadvance=19 page=0 chnl=15
char id=1188 x=785 y=2 width=30 height=29 xoffset=2 yoffset=14 xadvance=34 page=0 chnl=15
char id=1189 x=754 y=171 width=22 height=21 xoffset=2 yoffset=21 xadvance=24 page=0 chnl=15
char id=1190 x=778 y=141 width=33 height=35 xoffset=2 yoffset=14 xadvance=36 page=0 chnl=15
char id=1191 x=778 y=178 width=28 height=27 xoffset=2 yoffset=21 xadvance=30 page=0 chnl=15
char id=1192 x=790 y=207 width=25 height=30 xoffset=2 yoffset=14 xadvance=28 page=0 chnl=15
char id=1193 x=808 y=178 width=21 height=22 xoffset=1 yoffset=21 xadvance=23 page=0 chnl=15
char id=1194 x=793 y=73 width=19 height=38 xoffset=1 yoffset=14 xadvance=21 page=0 chnl=15
char id=1195 x=811 y=239 width=16 height=31 xoffset=1 yoffset=21 xadvance=18 page=0 chnl=15
char id=1196 x=803 y=33 width=19 height=36 xoffset=1 yoffset=14 xadvance=19 page=0 chnl=15
char id=1197 x=817 y=2 width=17 height=28 xoffset=1 yoffset=21 xadvance=18 page=0 chnl=15
char id=1198 x=817 y=202 width=22 height=29 xoffset=0 yoffset=14 xadvance=22 page=0 chnl=15
char id=1199 x=813 y=113 width=18 height=30 xoffset=0 yoffset=21 xadvance=18 page=0 chnl=15
char id=1200 x=813 y=145 width=22 height=29 xoffset=0 yoffset=14 xadvance=22 page=0 chnl=15
char id=1201 x=814 y=71 width=18 height=30 xoffset=0 yoffset=21 xadvance=18 page=0 chnl=15
char id=1202 x=824 y=32 width=22 height=36 xoffset=1 yoffset=14 xadvance=22 page=0 chnl=15
char id=1203 x=836 y=2 width=18 height=28 xoffset=0 yoffset=21 xadvance=18 page=0 chnl=15
char id=1204 x=833 y=103 width=29 height=36 xoffset=1 yoffset=14 xadvance=31 page=0 chnl=15
char id=1205 x=834 y=70 width=23 height=28 xoffset=1 yoffset=21 xadvance=24 page=0 chnl=15
char id=1206 x=848 y=32 width=23 height=36 xoffset=2 yoffset=14 xadvance=24 page=0 chnl=15
char id=1207 x=856 y=2 width=20 height=28 xoffset=2 yoffset=21 xadvance=19 page=0 chnl=15
char id=1208 x=859 y=70 width=20 height=29 xoffset=2 yoffset=14 xadvance=23 page=0 chnl=15
char id=1209 x=831 y=176 width=16 height=21 xoffset=2 yoffset=21 xadvance=19 page=0 chnl=15
char id=1210 x=837 y=141 width=20 height=29 xoffset=2 yoffset=14 xadvance=24 page=0 chnl=15
char id=1211 x=873 y=32 width=16 height=31 xoffset=2 yoffset=12 xadvance=19 page=0 chnl=15
char id=1212 x=801 y=401 width=25 height=30 xoffset=0 yoffset=14 xadvance=26 page=0 chnl=15
char id=1213 x=782 y=113 width=21 height=22 xoffset=-1 yoffset=21 xadvance=21 page=0 chnl=15
char id=1214 x=813 y=344 width=25 height=38 xoffset=0 yoffset=14 xadvance=26 page=0 chnl=15
char id=1215 x=815 y=307 width=21 height=31 xoffset=-1 yoffset=21 xadvance=21 page=0 chnl=15
char id=1216 x=826 y=272 width=6 height=29 xoffset=2 yoffset=14 xadvance=10 page=0 chnl=15
char id=1217 x=829 y=233 width=35 height=37 xoffset=0 yoffset=5 xadvance=35 page=0 chnl=15
char id=1218 x=841 y=199 width=30 height=31 xoffset=1 yoffset=12 xadvance=30 page=0 chnl=15
char id=1219 x=859 y=141 width=20 height=35 xoffset=2 yoffset=14 xadvance=23 page=0 chnl=15
char id=1220 x=878 y=2 width=17 height=27 xoffset=2 yoffset=21 xadvance=20 page=0 chnl=15
char id=1221 x=864 y=101 width=26 height=36 xoffset=1 yoffset=14 xadvance=24 page=0 chnl=15
char id=1222 x=834 y=272 width=22 height=28 xoffset=0 yoffset=21 xadvance=20 page=0 chnl=15
char id=1223 x=838 y=302 width=20 height=37 xoffset=2 yoffset=14 xadvance=24 page=0 chnl=15
char id=1224 x=881 y=65 width=16 height=30 xoffset=2 yoffset=21 xadvance=19 page=0 chnl=15
char id=1225 x=897 y=2 width=25 height=36 xoffset=2 yoffset=14 xadvance=24 page=0 chnl=15
char id=1226 x=858 y=272 width=21 height=28 xoffset=2 yoffset=21 xadvance=19 page=0 chnl=15
char id=1227 x=866 y=232 width=20 height=36 xoffset=2 yoffset=14 xadvance=24 page=0 chnl=15
char id=1228 x=873 y=178 width=16 height=28 xoffset=2 yoffset=21 xadvance=19 page=0 chnl=15
char id=1229 x=881 y=139 width=30 height=36 xoffset=2 yoffset=14 xadvance=29 page=0 chnl=15
char id=1230 x=892 y=97 width=27 height=28 xoffset=2 yoffset=21 xadvance=26 page=0 chnl=15
char id=1231 x=899 y=40 width=6 height=29 xoffset=2 yoffset=14 xadvance=10 page=0 chnl=15
char id=1232 x=907 y=40 width=22 height=37 xoffset=0 yoffset=5 xadvance=22 page=0 chnl=15
char id=1233 x=924 y=2 width=17 height=32 xoffset=1 yoffset=12 xadvance=18 page=0 chnl=15
char id=1234 x=801 y=433 width=22 height=36 xoffset=0 yoffset=7 xadvance=22 page=0 chnl=15
char id=1235 x=801 y=471 width=17 height=30 xoffset=1 yoffset=13 xadvance=18 page=0 chnl=15
char id=1236 x=820 y=471 width=31 height=29 xoffset=0 yoffset=14 xadvance=32 page=0 chnl=15
char id=1237 x=873 y=208 width=27 height=22 xoffset=1 yoffset=21 xadvance=29 page=0 chnl=15
char id=1238 x=828 y=384 width=17 height=37 xoffset=2 yoffset=5 xadvance=20 page=0 chnl=15
char id=1239 x=825 y=433 width=16 height=32 xoffset=1 yoffset=12 xadvance=18 page=0 chnl=15
char id=1240 x=840 y=341 width=21 height=30 xoffset=1 yoffset=14 xadvance=24 page=0 chnl=15
char id=1241 x=891 y=177 width=16 height=22 xoffset=1 yoffset=21 xadvance=18 page=0 chnl=15
char id=1242 x=860 y=302 width=21 height=36 xoffset=1 yoffset=7 xadvance=24 page=0 chnl=15
char id=1243 x=881 y=270 width=16 height=30 xoffset=1 yoffset=13 xadvance=18 page=0 chnl=15
char id=1244 x=888 y=232 width=35 height=36 xoffset=0 yoffset=7 xadvance=35 page=0 chnl=15
char id=1245 x=902 y=201 width=29 height=29 xoffset=1 yoffset=14 xadvance=30 page=0 chnl=15
char id=1246 x=843 y=423 width=19 height=36 xoffset=1 yoffset=7 xadvance=21 page=0 chnl=15
char id=1247 x=847 y=373 width=16 height=30 xoffset=1 yoffset=13 xadvance=18 page=0 chnl=15
char id=1248 x=863 y=340 width=18 height=29 xoffset=1 yoffset=14 xadvance=20 page=0 chnl=15
char id=1249 x=853 y=461 width=18 height=29 xoffset=1 yoffset=21 xadvance=20 page=0 chnl=15
char id=1250 x=864 y=405 width=20 height=35 xoffset=2 yoffset=8 xadvance=24 page=0 chnl=15
char id=1251 x=865 y=371 width=16 height=28 xoffset=2 yoffset=14 xadvance=19 page=0 chnl=15
char id=1252 x=873 y=442 width=20 height=36 xoffset=2 yoffset=7 xadvance=24 page=0 chnl=15
char id=1253 x=873 y=480 width=16 height=29 xoffset=2 yoffset=14 xadvance=19 page=0 chnl=15
char id=1254 x=913 y=127 width=20 height=36 xoffset=1 yoffset=7 xadvance=23 page=0 chnl=15
char id=1255 x=891 y=480 width=18 height=30 xoffset=1 yoffset=13 xadvance=19 page=0 chnl=15
char id=1256 x=913 y=165 width=20 height=30 xoffset=2 yoffset=14 xadvance=24 page=0 chnl=15
char id=1257 x=921 y=79 width=18 height=22 xoffset=1 yoffset=21 xadvance=19 page=0 chnl=15
char id=1258 x=931 y=36 width=20 height=36 xoffset=2 yoffset=7 xadvance=24 page=0 chnl=15
char id=1259 x=943 y=2 width=18 height=30 xoffset=1 yoffset=13 xadvance=19 page=0 chnl=15
char id=1260 x=883 y=302 width=19 height=36 xoffset=1 yoffset=7 xadvance=21 page=0 chnl=15
char id=1261 x=899 y=270 width=16 height=30 xoffset=1 yoffset=13 xadvance=18 page=0 chnl=15
char id=1262 x=883 y=340 width=21 height=35 xoffset=1 yoffset=8 xadvance=22 page=0 chnl=15
char id=1263 x=886 y=377 width=18 height=37 xoffset=0 yoffset=14 xadvance=18 page=0 chnl=15
char id=1264 x=904 y=302 width=21 height=36 xoffset=1 yoffset=7 xadvance=22 page=0 chnl=15
char id=1265 x=895 y=416 width=18 height=37 xoffset=0 yoffset=14 xadvance=18 page=0 chnl=15
char id=1266 x=911 y=455 width=21 height=37 xoffset=1 yoffset=6 xadvance=22 page=0 chnl=15
char id=1267 x=925 y=232 width=19 height=39 xoffset=0 yoffset=13 xadvance=18 page=0 chnl=15
char id=1268 x=906 y=340 width=20 height=36 xoffset=2 yoffset=7 xadvance=24 page=0 chnl=15
char id=1269 x=933 y=197 width=16 height=29 xoffset=2 yoffset=14 xadvance=19 page=0 chnl=15
char id=1270 x=906 y=378 width=16 height=36 xoffset=2 yoffset=14 xadvance=19 page=0 chnl=15
char id=1271 x=915 y=416 width=13 height=28 xoffset=2 yoffset=21 xadvance=14 page=0 chnl=15
char id=1272 x=924 y=378 width=26 height=36 xoffset=2 yoffset=7 xadvance=30 page=0 chnl=15
char id=1273 x=930 y=416 width=25 height=29 xoffset=2 yoffset=14 xadvance=29 page=0 chnl=15
char id=1274 x=934 y=447 width=19 height=37 xoffset=1 yoffset=14 xadvance=21 page=0 chnl=15
char id=1275 x=955 y=447 width=15 height=30 xoffset=1 yoffset=21 xadvance=15 page=0 chnl=15
char id=1276 x=927 y=273 width=24 height=37 xoffset=1 yoffset=14 xadvance=22 page=0 chnl=15
char id=1277 x=955 y=479 width=20 height=30 xoffset=0 yoffset=21 xadvance=18 page=0 chnl=15
char id=1278 x=946 y=228 width=21 height=29 xoffset=1 yoffset=14 xadvance=22 page=0 chnl=15
char id=1279 x=921 y=103 width=17 height=21 xoffset=0 yoffset=21 xadvance=18 page=0 chnl=15
char id=1280 x=928 y=312 width=19 height=29 xoffset=1 yoffset=14 xadvance=22 page=0 chnl=15
char id=1281 x=928 y=343 width=17 height=31 xoffset=1 yoffset=12 xadvance=19 page=0 chnl=15
char id=1282 x=947 y=343 width=28 height=29 xoffset=2 yoffset=14 xadvance=32 page=0 chnl=15
char id=1283 x=952 y=374 width=27 height=31 xoffset=2 yoffset=12 xadvance=29 page=0 chnl=15
char id=1284 x=949 y=312 width=24 height=29 xoffset=1 yoffset=14 xadvance=27 page=0 chnl=15
char id=1285 x=957 y=407 width=21 height=22 xoffset=1 yoffset=21 xadvance=22 page=0 chnl=15
char id=1286 x=972 y=431 width=19 height=35 xoffset=1 yoffset=14 xadvance=21 page=0 chnl=15
char id=1287 x=977 y=468 width=18 height=28 xoffset=2 yoffset=21 xadvance=20 page=0 chnl=15
char id=1288 x=953 y=259 width=31 height=29 xoffset=1 yoffset=14 xadvance=33 page=0 chnl=15
char id=1289 x=980 y=407 width=27 height=22 xoffset=1 yoffset=21 xadvance=29 page=0 chnl=15
char id=1290 x=993 y=431 width=31 height=29 xoffset=2 yoffset=14 xadvance=34 page=0 chnl=15
char id=1291 x=997 y=462 width=26 height=22 xoffset=1 yoffset=21 xadvance=28 page=0 chnl=15
char id=1292 x=1025 y=462 width=20 height=30 xoffset=1 yoffset=14 xadvance=22 page=0 chnl=15
char id=1293 x=934 y=486 width=17 height=22 xoffset=1 yoffset=21 xadvance=18 page=0 chnl=15
char id=1294 x=975 y=290 width=23 height=29 xoffset=1 yoffset=14 xadvance=24 page=0 chnl=15
char id=1295 x=997 y=486 width=20 height=22 xoffset=1 yoffset=21 xadvance=22 page=0 chnl=15
char id=1296 x=977 y=321 width=20 height=30 xoffset=2 yoffset=14 xadvance=22 page=0 chnl=15
char id=1297 x=981 y=353 width=17 height=22 xoffset=2 yoffset=21 xadvance=19 page=0 chnl=15
char id=1298 x=935 y=126 width=27 height=37 xoffset=1 yoffset=14 xadvance=24 page=0 chnl=15
char id=1299 x=999 y=321 width=23 height=30 xoffset=0 yoffset=21 xadvance=20 page=0 chnl=15
char id=7680 x=941 y=74 width=22 height=36 xoffset=0 yoffset=14 xadvance=22 page=0 chnl=15
char id=7681 x=935 y=165 width=17 height=29 xoffset=1 yoffset=21 xadvance=18 page=0 chnl=15
char id=7742 x=953 y=34 width=25 height=36 xoffset=2 yoffset=7 xadvance=29 page=0 chnl=15
char id=7743 x=963 y=2 width=26 height=30 xoffset=2 yoffset=13 xadvance=29 page=0 chnl=15
char id=7808 x=1000 y=353 width=30 height=36 xoffset=0 yoffset=7 xadvance=30 page=0 chnl=15
char id=7809 x=951 y=196 width=24 height=29 xoffset=0 yoffset=13 xadvance=25 page=0 chnl=15
char id=7810 x=1009 y=391 width=30 height=36 xoffset=0 yoffset=7 xadvance=30 page=0 chnl=15
char id=7811 x=954 y=165 width=24 height=29 xoffset=0 yoffset=13 xadvance=25 page=0 chnl=15
char id=7812 x=964 y=112 width=30 height=36 xoffset=0 yoffset=7 xadvance=30 page=0 chnl=15
char id=7813 x=969 y=227 width=24 height=29 xoffset=0 yoffset=14 xadvance=25 page=0 chnl=15
char id=7840 x=965 y=72 width=22 height=36 xoffset=0 yoffset=14 xadvance=22 page=0 chnl=15
char id=7841 x=981 y=377 width=17 height=28 xoffset=1 yoffset=21 xadvance=18 page=0 chnl=15
char id=7842 x=980 y=150 width=22 height=39 xoffset=0 yoffset=4 xadvance=22 page=0 chnl=15
char id=7843 x=980 y=191 width=17 height=33 xoffset=1 yoffset=10 xadvance=18 page=0 chnl=15
char id=7844 x=995 y=226 width=24 height=40 xoffset=0 yoffset=3 xadvance=22 page=0 chnl=15
char id=7845 x=980 y=34 width=22 height=34 xoffset=1 yoffset=9 xadvance=18 page=0 chnl=15
char id=7846 x=989 y=70 width=24 height=40 xoffset=-2 yoffset=3 xadvance=22 page=0 chnl=15
char id=7847 x=996 y=112 width=22 height=34 xoffset=-4 yoffset=9 xadvance=18 page=0 chnl=15
char id=7848 x=1000 y=268 width=22 height=40 xoffset=0 yoffset=2 xadvance=22 page=0 chnl=15
char id=7849 x=1004 y=2 width=20 height=34 xoffset=1 yoffset=9 xadvance=18 page=0 chnl=15
char id=7850 x=1015 y=38 width=22 height=41 xoffset=0 yoffset=2 xadvance=22 page=0 chnl=15
char id=7851 x=1026 y=2 width=17 height=34 xoffset=1 yoffset=9 xadvance=18 page=0 chnl=15
char id=7852 x=1004 y=148 width=22 height=43 xoffset=0 yoffset=6 xadvance=22 page=0 chnl=15
char id=7853 x=1020 y=81 width=17 height=37 xoffset=1 yoffset=13 xadvance=18 page=0 chnl=15
char id=7854 x=1021 y=193 width=22 height=40 xoffset=0 yoffset=3 xadvance=22 page=0 chnl=15
char id=7855 x=1028 y=120 width=17 height=34 xoffset=1 yoffset=10 xadvance=18 page=0 chnl=15
char id=7856 x=1039 y=38 width=22 height=42 xoffset=0 yoffset=1 xadvance=22 page=0 chnl=15
char id=7857 x=1024 y=235 width=17 height=37 xoffset=1 yoffset=7 xadvance=18 page=0 chnl=15
char id=7858 x=1024 y=274 width=22 height=43 xoffset=0 yoffset=0 xadvance=22 page=0 chnl=15
char id=7859 x=1043 y=235 width=17 height=37 xoffset=1 yoffset=6 xadvance=18 page=0 chnl=15
char id=7860 x=1032 y=319 width=22 height=42 xoffset=0 yoffset=1 xadvance=22 page=0 chnl=15
char id=7861 x=1039 y=82 width=17 height=36 xoffset=1 yoffset=8 xadvance=18 page=0 chnl=15
char id=7862 x=1045 y=156 width=22 height=44 xoffset=0 yoffset=5 xadvance=22 page=0 chnl=15
char id=7863 x=1048 y=274 width=17 height=38 xoffset=1 yoffset=12 xadvance=18 page=0 chnl=15
char id=7864 x=1062 y=202 width=17 height=35 xoffset=2 yoffset=14 xadvance=20 page=0 chnl=15
char id=7865 x=999 y=193 width=16 height=29 xoffset=1 yoffset=21 xadvance=18 page=0 chnl=15
char id=7866 x=1058 y=82 width=17 height=39 xoffset=2 yoffset=4 xadvance=20 page=0 chnl=15
char id=7867 x=1062 y=239 width=16 height=33 xoffset=1 yoffset=10 xadvance=18 page=0 chnl=15
char id=7868 x=1069 y=123 width=17 height=37 xoffset=2 yoffset=5 xadvance=20 page=0 chnl=15
char id=7869 x=1045 y=2 width=16 height=32 xoffset=1 yoffset=12 xadvance=18 page=0 chnl=15
char id=7870 x=1063 y=2 width=21 height=40 xoffset=2 yoffset=3 xadvance=20 page=0 chnl=15
char id=7871 x=1063 y=44 width=21 height=34 xoffset=1 yoffset=9 xadvance=18 page=0 chnl=15
char id=7872 x=1077 y=80 width=22 height=40 xoffset=-3 yoffset=3 xadvance=20 page=0 chnl=15
char id=7873 x=1069 y=162 width=22 height=34 xoffset=-4 yoffset=9 xadvance=18 page=0 chnl=15
char id=7874 x=1086 y=2 width=19 height=40 xoffset=2 yoffset=3 xadvance=20 page=0 chnl=15
char id=7875 x=1086 y=44 width=19 height=34 xoffset=1 yoffset=9 xadvance=18 page=0 chnl=15
char id=7876 x=1041 y=363 width=17 height=41 xoffset=2 yoffset=2 xadvance=20 page=0 chnl=15
char id=7877 x=1088 y=122 width=16 height=34 xoffset=1 yoffset=9 xadvance=18 page=0 chnl=15
char id=7878 x=1056 y=314 width=17 height=43 xoffset=2 yoffset=6 xadvance=20 page=0 chnl=15
char id=7879 x=1067 y=274 width=16 height=37 xoffset=1 yoffset=12 xadvance=18 page=0 chnl=15
char id=7880 x=1101 y=80 width=8 height=39 xoffset=2 yoffset=4 xadvance=10 page=0 chnl=15
char id=7881 x=1047 y=120 width=8 height=32 xoffset=2 yoffset=10 xadvance=10 page=0 chnl=15
char id=7882 x=1041 y=406 width=7 height=36 xoffset=2 yoffset=14 xadvance=10 page=0 chnl=15
char id=7883 x=1047 y=444 width=7 height=38 xoffset=2 yoffset=12 xadvance=10 page=0 chnl=15
char id=7884 x=1050 y=406 width=20 height=36 xoffset=1 yoffset=14 xadvance=23 page=0 chnl=15
char id=7885 x=1080 y=239 width=18 height=29 xoffset=1 yoffset=21 xadvance=19 page=0 chnl=15
char id=7886 x=1060 y=359 width=20 height=40 xoffset=1 yoffset=3 xadvance=23 page=0 chnl=15
char id=7887 x=1081 y=198 width=18 height=33 xoffset=1 yoffset=10 xadvance=19 page=0 chnl=15
char id=7888 x=1075 y=313 width=23 height=41 xoffset=1 yoffset=3 xadvance=23 page=0 chnl=15
char id=7889 x=1093 y=158 width=22 height=34 xoffset=1 yoffset=9 xadvance=19 page=0 chnl=15
char id=7890 x=1085 y=270 width=23 height=40 xoffset=-2 yoffset=3 xadvance=23 page=0 chnl=15
char id=7891 x=1106 y=121 width=22 height=34 xoffset=-3 yoffset=9 xadvance=19 page=0 chnl=15
char id=7892 x=1056 y=444 width=21 height=41 xoffset=1 yoffset=2 xadvance=23 page=0 chnl=15
char id=7893 x=1100 y=233 width=20 height=34 xoffset=1 yoffset=9 xadvance=19 page=0 chnl=15
char id=7894 x=1117 y=157 width=20 height=42 xoffset=1 yoffset=2 xadvance=23 page=0 chnl=15
char id=7895 x=1072 y=401 width=18 height=34 xoffset=1 yoffset=9 xadvance=19 page=0 chnl=15
char id=7896 x=1079 y=437 width=20 height=44 xoffset=1 yoffset=6 xadvance=23 page=0 chnl=15
char id=7897 x=1082 y=356 width=18 height=37 xoffset=1 yoffset=13 xadvance=19 page=0 chnl=15
char id=7898 x=1092 y=395 width=25 height=36 xoffset=2 yoffset=7 xadvance=24 page=0 chnl=15
char id=7899 x=1101 y=201 width=20 height=30 xoffset=1 yoffset=13 xadvance=20 page=0 chnl=15
char id=7900 x=1100 y=312 width=25 height=36 xoffset=2 yoffset=7 xadvance=24 page=0 chnl=15
char id=7901 x=1110 y=269 width=20 height=30 xoffset=1 yoffset=13 xadvance=20 page=0 chnl=15
char id=7902 x=1102 y=350 width=25 height=39 xoffset=2 yoffset=4 xadvance=24 page=0 chnl=15
char id=7903 x=1122 y=233 width=20 height=33 xoffset=1 yoffset=10 xadvance=20 page=0 chnl=15
char id=7904 x=1127 y=301 width=25 height=38 xoffset=2 yoffset=5 xadvance=24 page=0 chnl=15
char id=7905 x=1107 y=2 width=20 height=32 xoffset=1 yoffset=12 xadvance=20 page=0 chnl=15
char id=7906 x=1107 y=36 width=25 height=39 xoffset=2 yoffset=11 xadvance=24 page=0 chnl=15
char id=7907 x=1129 y=2 width=20 height=32 xoffset=1 yoffset=18 xadvance=20 page=0 chnl=15
char id=7908 x=1111 y=77 width=20 height=36 xoffset=2 yoffset=14 xadvance=23 page=0 chnl=15
char id=7909 x=1123 y=201 width=16 height=28 xoffset=2 yoffset=21 xadvance=19 page=0 chnl=15
char id=7910 x=1130 y=115 width=20 height=40 xoffset=2 yoffset=4 xadvance=23 page=0 chnl=15
char id=7911 x=1133 y=77 width=16 height=33 xoffset=2 yoffset=10 xadvance=19 page=0 chnl=15
char id=7912 x=1134 y=36 width=26 height=36 xoffset=2 yoffset=7 xadvance=25 page=0 chnl=15
char id=7913 x=1132 y=268 width=22 height=30 xoffset=2 yoffset=13 xadvance=21 page=0 chnl=15
char id=7914 x=1151 y=74 width=26 height=36 xoffset=2 yoffset=7 xadvance=25 page=0 chnl=15
char id=7915 x=1151 y=2 width=22 height=30 xoffset=2 yoffset=13 xadvance=21 page=0 chnl=15
char id=7916 x=1139 y=157 width=26 height=40 xoffset=2 yoffset=4 xadvance=25 page=0 chnl=15
char id=7917 x=1162 y=34 width=22 height=33 xoffset=2 yoffset=10 xadvance=21 page=0 chnl=15
char id=7918 x=1152 y=112 width=26 height=38 xoffset=2 yoffset=5 xadvance=25 page=0 chnl=15
char id=7919 x=1141 y=199 width=22 height=31 xoffset=2 yoffset=12 xadvance=21 page=0 chnl=15
char id=7920 x=1179 y=69 width=26 height=39 xoffset=2 yoffset=11 xadvance=25 page=0 chnl=15
char id=7921 x=1175 y=2 width=22 height=30 xoffset=2 yoffset=19 xadvance=21 page=0 chnl=15
char id=7922 x=1199 y=2 width=22 height=36 xoffset=0 yoffset=7 xadvance=22 page=0 chnl=15
char id=7923 x=1101 y=433 width=18 height=38 xoffset=0 yoffset=13 xadvance=18 page=0 chnl=15
char id=7924 x=1101 y=473 width=22 height=35 xoffset=0 yoffset=14 xadvance=22 page=0 chnl=15
char id=7925 x=1144 y=232 width=18 height=32 xoffset=0 yoffset=21 xadvance=18 page=0 chnl=15
char id=7926 x=1119 y=391 width=22 height=39 xoffset=0 yoffset=4 xadvance=22 page=0 chnl=15
char id=7927 x=1129 y=341 width=18 height=41 xoffset=0 yoffset=10 xadvance=18 page=0 chnl=15
char id=7928 x=1121 y=432 width=22 height=37 xoffset=0 yoffset=5 xadvance=22 page=0 chnl=15
char id=7929 x=1125 y=471 width=18 height=39 xoffset=0 yoffset=12 xadvance=18 page=0 chnl=15
char id=8013 x=1143 y=384 width=25 height=34 xoffset=-3 yoffset=9 xadvance=23 page=0 chnl=15
char id=8192 x=12 y=33 width=0 height=0 xoffset=0 yoffset=42 xadvance=18 page=0 chnl=15
char id=8193 x=240 y=247 width=0 height=0 xoffset=0 yoffset=42 xadvance=35 page=0 chnl=15
char id=8194 x=863 y=371 width=0 height=0 xoffset=0 yoffset=42 xadvance=18 page=0 chnl=15
char id=8195 x=1139 y=199 width=0 height=0 xoffset=0 yoffset=42 xadvance=35 page=0 chnl=15
char id=8196 x=326 y=259 width=0 height=0 xoffset=0 yoffset=42 xadvance=12 page=0 chnl=15
char id=8197 x=328 y=259 width=0 height=0 xoffset=0 yoffset=42 xadvance=9 page=0 chnl=15
char id=8198 x=375 y=33 width=0 height=0 xoffset=0 yoffset=42 xadvance=6 page=0 chnl=15
char id=8199 x=377 y=33 width=0 height=0 xoffset=0 yoffset=42 xadvance=19 page=0 chnl=15
char id=8200 x=1121 y=471 width=0 height=0 xoffset=0 yoffset=42 xadvance=10 page=0 chnl=15
char id=8201 x=1123 y=471 width=0 height=0 xoffset=0 yoffset=42 xadvance=7 page=0 chnl=15
char id=8202 x=69 y=466 width=0 height=0 xoffset=0 yoffset=42 xadvance=4 page=0 chnl=15
char id=8203 x=71 y=466 width=0 height=0 xoffset=0 yoffset=42 xadvance=0 page=0 chnl=15
char id=8211 x=520 y=26 width=14 height=5 xoffset=3 yoffset=26 xadvance=24 page=0 chnl=15
char id=8212 x=764 y=466 width=14 height=5 xoffset=3 yoffset=26 xadvance=28 page=0 chnl=15
char id=8213 x=1101 y=194 width=14 height=5 xoffset=3 yoffset=26 xadvance=28 page=0 chnl=15
char id=8215 x=783 y=500 width=15 height=10 xoffset=0 yoffset=42 xadvance=15 page=0 chnl=15
char id=8216 x=521 y=254 width=6 height=11 xoffset=1 yoffset=12 xadvance=7 page=0 chnl=15
char id=8217 x=535 y=470 width=6 height=11 xoffset=1 yoffset=12 xadvance=7 page=0 chnl=15
char id=8218 x=666 y=66 width=6 height=11 xoffset=1 yoffset=37 xadvance=7 page=0 chnl=15
char id=8219 x=157 y=321 width=6 height=11 xoffset=1 yoffset=12 xadvance=8 page=0 chnl=15
char id=8220 x=235 y=168 width=12 height=11 xoffset=1 yoffset=12 xadvance=13 page=0 chnl=15
char id=8221 x=401 y=388 width=12 height=11 xoffset=1 yoffset=12 xadvance=13 page=0 chnl=15
char id=8222 x=635 y=239 width=12 height=10 xoffset=1 yoffset=37 xadvance=13 page=0 chnl=15
char id=8224 x=1149 y=341 width=17 height=29 xoffset=1 yoffset=14 xadvance=18 page=0 chnl=15
char id=8225 x=1154 y=300 width=17 height=37 xoffset=2 yoffset=14 xadvance=20 page=0 chnl=15
char id=8226 x=138 y=205 width=9 height=11 xoffset=2 yoffset=22 xadvance=13 page=0 chnl=15
char id=8229 x=619 y=402 width=14 height=5 xoffset=3 yoffset=37 xadvance=19 page=0 chnl=15
char id=8230 x=293 y=35 width=22 height=5 xoffset=3 yoffset=37 xadvance=26 page=0 chnl=15
char id=8240 x=1156 y=266 width=30 height=30 xoffset=2 yoffset=14 xadvance=33 page=0 chnl=15
char id=8242 x=175 y=42 width=4 height=11 xoffset=1 yoffset=12 xadvance=6 page=0 chnl=15
char id=8243 x=748 y=321 width=10 height=10 xoffset=1 yoffset=12 xadvance=12 page=0 chnl=15
char id=8249 x=483 y=369 width=8 height=16 xoffset=2 yoffset=24 xadvance=11 page=0 chnl=15
char id=8250 x=847 y=405 width=8 height=16 xoffset=1 yoffset=24 xadvance=11 page=0 chnl=15
char id=8252 x=1164 y=232 width=16 height=29 xoffset=2 yoffset=14 xadvance=20 page=0 chnl=15
char id=8260 x=1045 y=202 width=15 height=24 xoffset=0 yoffset=17 xadvance=15 page=0 chnl=15
char id=8308 x=614 y=251 width=14 height=18 xoffset=1 yoffset=14 xadvance=16 page=0 chnl=15
char id=8319 x=582 y=138 width=12 height=16 xoffset=1 yoffset=14 xadvance=14 page=0 chnl=15
char id=8355 x=1165 y=199 width=19 height=29 xoffset=0 yoffset=14 xadvance=20 page=0 chnl=15
char id=8356 x=1182 y=230 width=18 height=29 xoffset=2 yoffset=14 xadvance=21 page=0 chnl=15
char id=8359 x=1168 y=339 width=27 height=29 xoffset=2 yoffset=14 xadvance=30 page=0 chnl=15
char id=8363 x=1173 y=298 width=19 height=38 xoffset=1 yoffset=12 xadvance=20 page=0 chnl=15
char id=8364 x=1188 y=261 width=16 height=30 xoffset=1 yoffset=14 xadvance=19 page=0 chnl=15
char id=8453 x=1194 y=293 width=22 height=30 xoffset=2 yoffset=14 xadvance=25 page=0 chnl=15
char id=8467 x=1167 y=152 width=16 height=30 xoffset=0 yoffset=14 xadvance=17 page=0 chnl=15
char id=8470 x=1180 y=110 width=34 height=29 xoffset=2 yoffset=14 xadvance=37 page=0 chnl=15
char id=8482 x=85 y=499 width=17 height=11 xoffset=2 yoffset=14 xadvance=22 page=0 chnl=15
char id=8486 x=1185 y=141 width=20 height=29 xoffset=2 yoffset=14 xadvance=23 page=0 chnl=15
char id=8494 x=1047 y=487 width=17 height=22 xoffset=3 yoffset=21 xadvance=22 page=0 chnl=15
char id=8539 x=1186 y=172 width=26 height=29 xoffset=2 yoffset=14 xadvance=29 page=0 chnl=15
char id=8540 x=1207 y=141 width=29 height=29 xoffset=2 yoffset=14 xadvance=32 page=0 chnl=15
char id=8541 x=1202 y=203 width=29 height=29 xoffset=2 yoffset=14 xadvance=33 page=0 chnl=15
char id=8542 x=1214 y=172 width=27 height=29 xoffset=2 yoffset=14 xadvance=30 page=0 chnl=15
char id=8706 x=1206 y=234 width=19 height=30 xoffset=1 yoffset=13 xadvance=21 page=0 chnl=15
char id=8710 x=1207 y=40 width=25 height=29 xoffset=0 yoffset=14 xadvance=25 page=0 chnl=15
char id=8719 x=1223 y=2 width=19 height=34 xoffset=3 yoffset=14 xadvance=24 page=0 chnl=15
char id=8721 x=1207 y=71 width=20 height=34 xoffset=1 yoffset=14 xadvance=22 page=0 chnl=15
char id=8722 x=1045 y=228 width=14 height=5 xoffset=2 yoffset=26 xadvance=19 page=0 chnl=15
char id=8730 x=1216 y=107 width=18 height=29 xoffset=1 yoffset=14 xadvance=19 page=0 chnl=15
char id=8734 x=1066 y=487 width=33 height=22 xoffset=2 yoffset=21 xadvance=36 page=0 chnl=15
char id=8747 x=1234 y=38 width=14 height=40 xoffset=-1 yoffset=12 xadvance=10 page=0 chnl=15
char id=8776 x=596 y=168 width=17 height=16 xoffset=2 yoffset=22 xadvance=20 page=0 chnl=15
char id=8800 x=1028 y=156 width=15 height=22 xoffset=3 yoffset=19 xadvance=19 page=0 chnl=15
char id=8804 x=1229 y=80 width=15 height=25 xoffset=2 yoffset=20 xadvance=19 page=0 chnl=15
char id=8805 x=1206 y=266 width=15 height=25 xoffset=3 yoffset=20 xadvance=19 page=0 chnl=15
char id=9674 x=1236 y=107 width=18 height=29 xoffset=1 yoffset=14 xadvance=18 page=0 chnl=15
char id=63171 x=840 y=373 width=5 height=8 xoffset=1 yoffset=37 xadvance=8 page=0 chnl=15
char id=64257 x=1238 y=138 width=20 height=31 xoffset=0 yoffset=12 xadvance=22 page=0 chnl=15
char id=64258 x=1244 y=2 width=20 height=31 xoffset=0 yoffset=12 xadvance=22 page=0 chnl=15
char id=64259 x=1250 y=35 width=32 height=31 xoffset=0 yoffset=12 xadvance=34 page=0 chnl=15
char id=64260 x=1266 y=2 width=33 height=31 xoffset=0 yoffset=12 xadvance=35 page=0 chnl=15
char id=65279 x=198 y=40 width=0 height=0 xoffset=0 yoffset=42 xadvance=0 page=0 chnl=15
char id=65532 x=1250 y=68 width=32 height=37 xoffset=2 yoffset=14 xadvance=35 page=0 chnl=15
char id=65533 x=1145 y=420 width=32 height=39 xoffset=2 yoffset=10 xadvance=35 page=0 chnl=15
char id=32 x=200 y=40 width=0 height=0 xoffset=0 yoffset=42 xadvance=9 page=0 chnl=15
char id=32 x=0 y=0 width=0 height=0 xoffset=0 yoffset=42 xadvance=9 page=0 chnl=15